{
	"v": "5.7.1",
	"fr": 25,
	"ip": 0,
	"op": 101,
	"w": 1120,
	"h": 1120,
	"nm": "Leverage_inapp_assets 2",
	"ddd": 0,
	"assets": [],
	"layers": [
		{
			"ddd": 0,
			"ind": 1,
			"ty": 3,
			"nm": "Null 1",
			"sr": 1,
			"ks": {
				"o": { "a": 0, "k": 0, "ix": 11 },
				"r": { "a": 0, "k": 0, "ix": 10 },
				"p": { "a": 0, "k": [ 111, 699, 0 ], "ix": 2 },
				"a": { "a": 0, "k": [ -449, 139, 0 ], "ix": 1 },
				"s": {
					"a": 1,
					"k": [
						{
							"i": { "x": [ 0.667, 0.667, 0.667 ], "y": [ 1, 1, 1 ] },
							"o": { "x": [ 0.333, 0.333, 0.333 ], "y": [ 0, 0, 0 ] },
							"t": 631,
							"s": [ 100, 100, 100 ]
						},
						{ "t": 639, "s": [ 81.5, 81.5, 100 ] }
					],
					"ix": 6
				}
			},
			"ao": 0,
			"ip": 581,
			"op": 1181,
			"st": 431,
			"bm": 0
		},
		{
			"ddd": 0,
			"ind": 2,
			"ty": 4,
			"nm": "ground Outlines 3",
			"parent": 1,
			"sr": 1,
			"ks": {
				"o": { "a": 0, "k": 100, "ix": 11 },
				"r": { "a": 0, "k": 0, "ix": 10 },
				"p": { "a": 0, "k": [ 0, 138.493, 0 ], "ix": 2 },
				"a": { "a": 0, "k": [ 455.423, 2.5, 0 ], "ix": 1 },
				"s": { "a": 0, "k": [ 100, 100, 100 ], "ix": 6 }
			},
			"ao": 0,
			"shapes": [
				{
					"ty": "gr",
					"it": [
						{
							"ind": 0,
							"ty": "sh",
							"ix": 1,
							"ks": {
								"a": 1,
								"k": [
									{
										"i": { "x": 0.667, "y": 1 },
										"o": { "x": 0.333, "y": 0 },
										"t": 631,
										"s": [
											{
												"i": [ [ 0, 0 ], [ 0, 0 ] ],
												"o": [ [ 0, 0 ], [ 0, 0 ] ],
												"v": [ [ 2.5, 2.5 ], [ 908.346, 2.5 ] ],
												"c": false
											}
										]
									},
									{
										"t": 639,
										"s": [
											{
												"i": [ [ 0, 0 ], [ 0, 0 ] ],
												"o": [ [ 0, 0 ], [ 0, 0 ] ],
												"v": [ [ 2.5, 2.5 ], [ 1115.159, 2.02 ] ],
												"c": false
											}
										]
									}
								],
								"ix": 2
							},
							"nm": "Path 1",
							"mn": "ADBE Vector Shape - Group",
							"hd": false
						},
						{
							"ty": "st",
							"c": { "a": 0, "k": [ 0, 0.62400004069, 0.838999968884, 1 ], "ix": 3 },
							"o": { "a": 0, "k": 100, "ix": 4 },
							"w": { "a": 0, "k": 5, "ix": 5 },
							"lc": 2,
							"lj": 1,
							"ml": 10,
							"bm": 0,
							"nm": "Stroke 1",
							"mn": "ADBE Vector Graphic - Stroke",
							"hd": false
						},
						{
							"ty": "tr",
							"p": { "a": 0, "k": [ 0, 0 ], "ix": 2 },
							"a": { "a": 0, "k": [ 0, 0 ], "ix": 1 },
							"s": { "a": 0, "k": [ 100, 100 ], "ix": 3 },
							"r": { "a": 0, "k": 0, "ix": 6 },
							"o": { "a": 0, "k": 100, "ix": 7 },
							"sk": { "a": 0, "k": 0, "ix": 4 },
							"sa": { "a": 0, "k": 0, "ix": 5 },
							"nm": "Transform"
						}
					],
					"nm": "Group 1",
					"np": 2,
					"cix": 2,
					"bm": 0,
					"ix": 1,
					"mn": "ADBE Vector Group",
					"hd": false
				},
				{
					"ty": "tm",
					"s": { "a": 0, "k": 100, "ix": 1 },
					"e": { "a": 0, "k": 0, "ix": 2 },
					"o": { "a": 0, "k": 0, "ix": 3 },
					"m": 1,
					"ix": 2,
					"nm": "Trim Paths 1",
					"mn": "ADBE Vector Filter - Trim",
					"hd": false
				}
			],
			"ip": 581,
			"op": 1181,
			"st": 431,
			"bm": 0
		},
		{
			"ddd": 0,
			"ind": 3,
			"ty": 4,
			"nm": "arrow Outlines 4",
			"parent": 1,
			"sr": 1,
			"ks": {
				"o": { "a": 0, "k": 100, "ix": 11 },
				"r": { "a": 0, "k": 180, "ix": 10 },
				"p": { "a": 0, "k": [ 602.186, -75.464, 0 ], "ix": 2 },
				"a": { "a": 0, "k": [ 35.482, 152.153, 0 ], "ix": 1 },
				"s": { "a": 0, "k": [ 100, 100, 100 ], "ix": 6 }
			},
			"ao": 0,
			"shapes": [
				{
					"ty": "gr",
					"it": [
						{
							"ind": 0,
							"ty": "sh",
							"ix": 1,
							"ks": {
								"a": 0,
								"k": {
									"i": [ [ 0, 0 ], [ 0, 0 ] ],
									"o": [ [ 0, 0 ], [ 0, 0 ] ],
									"v": [ [ 35.217, -60.515 ], [ 35.482, 279.597 ] ],
									"c": false
								},
								"ix": 2
							},
							"nm": "Path 1",
							"mn": "ADBE Vector Shape - Group",
							"hd": false
						},
						{
							"ty": "st",
							"c": { "a": 0, "k": [ 0, 0.62400004069, 0.838999968884, 1 ], "ix": 3 },
							"o": { "a": 0, "k": 100, "ix": 4 },
							"w": { "a": 0, "k": 7.805, "ix": 5 },
							"lc": 1,
							"lj": 1,
							"ml": 10,
							"bm": 0,
							"d": [
								{ "n": "d", "nm": "dash", "v": { "a": 0, "k": 15, "ix": 1 } },
								{ "n": "o", "nm": "offset", "v": { "a": 0, "k": 0, "ix": 7 } }
							],
							"nm": "Stroke 1",
							"mn": "ADBE Vector Graphic - Stroke",
							"hd": false
						},
						{
							"ty": "tr",
							"p": { "a": 0, "k": [ 0, 0 ], "ix": 2 },
							"a": { "a": 0, "k": [ 0, 0 ], "ix": 1 },
							"s": { "a": 0, "k": [ 100, 100 ], "ix": 3 },
							"r": { "a": 0, "k": 0, "ix": 6 },
							"o": { "a": 0, "k": 100, "ix": 7 },
							"sk": { "a": 0, "k": 0, "ix": 4 },
							"sa": { "a": 0, "k": 0, "ix": 5 },
							"nm": "Transform"
						}
					],
					"nm": "Group 2",
					"np": 2,
					"cix": 2,
					"bm": 0,
					"ix": 1,
					"mn": "ADBE Vector Group",
					"hd": false
				},
				{
					"ty": "gr",
					"it": [
						{
							"ind": 0,
							"ty": "sh",
							"ix": 1,
							"ks": {
								"a": 0,
								"k": {
									"i": [ [ 0, 0 ], [ 0, 0 ], [ 0, 0 ] ],
									"o": [ [ 0, 0 ], [ 0, 0 ], [ 0, 0 ] ],
									"v": [ [ -15.97, -12.113 ], [ 0, 12.113 ], [ 15.97, -12.113 ] ],
									"c": false
								},
								"ix": 2
							},
							"nm": "Path 1",
							"mn": "ADBE Vector Shape - Group",
							"hd": false
						},
						{
							"ty": "st",
							"c": { "a": 0, "k": [ 0, 0.62400004069, 0.838999968884, 1 ], "ix": 3 },
							"o": { "a": 0, "k": 100, "ix": 4 },
							"w": { "a": 0, "k": 7.805, "ix": 5 },
							"lc": 2,
							"lj": 1,
							"ml": 10,
							"bm": 0,
							"nm": "Stroke 1",
							"mn": "ADBE Vector Graphic - Stroke",
							"hd": false
						},
						{
							"ty": "tr",
							"p": { "a": 0, "k": [ 35.482, 272.68 ], "ix": 2 },
							"a": { "a": 0, "k": [ 0, 0 ], "ix": 1 },
							"s": { "a": 0, "k": [ 100, 100 ], "ix": 3 },
							"r": { "a": 0, "k": 0, "ix": 6 },
							"o": { "a": 0, "k": 100, "ix": 7 },
							"sk": { "a": 0, "k": 0, "ix": 4 },
							"sa": { "a": 0, "k": 0, "ix": 5 },
							"nm": "Transform"
						}
					],
					"nm": "Group 1",
					"np": 2,
					"cix": 2,
					"bm": 0,
					"ix": 2,
					"mn": "ADBE Vector Group",
					"hd": false
				},
				{
					"ty": "tm",
					"s": {
						"a": 1,
						"k": [
							{
								"i": { "x": [ 0.833 ], "y": [ 0.833 ] },
								"o": { "x": [ 0.167 ], "y": [ 0.167 ] },
								"t": 680,
								"s": [ 0 ]
							},
							{ "t": 696, "s": [ 100 ] }
						],
						"ix": 1
					},
					"e": {
						"a": 1,
						"k": [
							{
								"i": { "x": [ 0.667 ], "y": [ 1 ] },
								"o": { "x": [ 0.333 ], "y": [ 0 ] },
								"t": 668,
								"s": [ 0 ]
							},
							{ "t": 683, "s": [ 100 ] }
						],
						"ix": 2
					},
					"o": { "a": 0, "k": 0, "ix": 3 },
					"m": 2,
					"ix": 3,
					"nm": "Trim Paths 1",
					"mn": "ADBE Vector Filter - Trim",
					"hd": false
				}
			],
			"ip": 654,
			"op": 1155,
			"st": 405,
			"bm": 0
		},
		{
			"ddd": 0,
			"ind": 4,
			"ty": 4,
			"nm": "lever Outlines 4",
			"parent": 1,
			"sr": 1,
			"ks": {
				"o": { "a": 0, "k": 100, "ix": 11 },
				"r": {
					"a": 1,
					"k": [
						{
							"i": { "x": [ 0.667 ], "y": [ 1 ] },
							"o": { "x": [ 0.81 ], "y": [ 0 ] },
							"t": 486,
							"s": [ -18 ]
						},
						{
							"i": { "x": [ 0.667 ], "y": [ 1 ] },
							"o": { "x": [ 0.774 ], "y": [ 0 ] },
							"t": 505,
							"s": [ 18 ]
						},
						{
							"i": { "x": [ 0.833 ], "y": [ 1 ] },
							"o": { "x": [ 0.774 ], "y": [ 0 ] },
							"t": 631,
							"s": [ 18 ]
						},
						{
							"i": { "x": [ 0.833 ], "y": [ 1 ] },
							"o": { "x": [ 0.167 ], "y": [ 0 ] },
							"t": 639,
							"s": [ 11.5 ]
						},
						{
							"i": { "x": [ 0.833 ], "y": [ 1 ] },
							"o": { "x": [ 0.167 ], "y": [ 0 ] },
							"t": 668,
							"s": [ 11.5 ]
						},
						{ "t": 678, "s": [ -18 ] }
					],
					"ix": 10
				},
				"p": { "a": 0, "k": [ 0, 0, 0 ], "ix": 2 },
				"a": { "a": 0, "k": [ 423, 10, 0 ], "ix": 1 },
				"s": { "a": 0, "k": [ 100, 100, 100 ], "ix": 6 }
			},
			"ao": 0,
			"shapes": [
				{
					"ty": "gr",
					"it": [
						{
							"ind": 0,
							"ty": "sh",
							"ix": 1,
							"ks": {
								"a": 0,
								"k": {
									"i": [ [ 0, 0 ], [ 0, 0 ] ],
									"o": [ [ 0, 0 ], [ 0, 0 ] ],
									"v": [ [ 10, 10 ], [ 836, 10 ] ],
									"c": false
								},
								"ix": 2
							},
							"nm": "Path 1",
							"mn": "ADBE Vector Shape - Group",
							"hd": false
						},
						{
							"ty": "st",
							"c": { "a": 0, "k": [ 1, 1, 1, 1 ], "ix": 3 },
							"o": { "a": 0, "k": 100, "ix": 4 },
							"w": { "a": 0, "k": 20, "ix": 5 },
							"lc": 1,
							"lj": 1,
							"ml": 10,
							"bm": 0,
							"nm": "Stroke 1",
							"mn": "ADBE Vector Graphic - Stroke",
							"hd": false
						},
						{
							"ty": "tr",
							"p": { "a": 0, "k": [ 0, 0 ], "ix": 2 },
							"a": { "a": 0, "k": [ 0, 0 ], "ix": 1 },
							"s": { "a": 0, "k": [ 100, 100 ], "ix": 3 },
							"r": { "a": 0, "k": 0, "ix": 6 },
							"o": { "a": 0, "k": 100, "ix": 7 },
							"sk": { "a": 0, "k": 0, "ix": 4 },
							"sa": { "a": 0, "k": 0, "ix": 5 },
							"nm": "Transform"
						}
					],
					"nm": "Group 1",
					"np": 2,
					"cix": 2,
					"bm": 0,
					"ix": 1,
					"mn": "ADBE Vector Group",
					"hd": false
				}
			],
			"ip": 581,
			"op": 1181,
			"st": 431,
			"bm": 0
		},
		{
			"ddd": 0,
			"ind": 5,
			"ty": 4,
			"nm": "lever Outlines 3",
			"parent": 4,
			"sr": 1,
			"ks": {
				"o": { "a": 0, "k": 100, "ix": 11 },
				"r": { "a": 0, "k": 0, "ix": 10 },
				"p": { "a": 0, "k": [ 423, 10, 0 ], "ix": 2 },
				"a": { "a": 0, "k": [ 423, 10, 0 ], "ix": 1 },
				"s": { "a": 0, "k": [ 100, 100, 100 ], "ix": 6 }
			},
			"ao": 0,
			"shapes": [
				{
					"ty": "gr",
					"it": [
						{
							"ind": 0,
							"ty": "sh",
							"ix": 1,
							"ks": {
								"a": 1,
								"k": [
									{
										"i": { "x": 0.667, "y": 1 },
										"o": { "x": 0.333, "y": 0 },
										"t": 635,
										"s": [
											{
												"i": [ [ 0, 0 ], [ 0, 0 ] ],
												"o": [ [ 0, 0 ], [ 0, 0 ] ],
												"v": [ [ 10, 10 ], [ 836, 10 ] ],
												"c": false
											}
										]
									},
									{
										"t": 639,
										"s": [
											{
												"i": [ [ 0, 0 ], [ 0, 0 ] ],
												"o": [ [ 0, 0 ], [ 0, 0 ] ],
												"v": [ [ 23.375, 9.781 ], [ 1057.647, 9.886 ] ],
												"c": false
											}
										]
									}
								],
								"ix": 2
							},
							"nm": "Path 1",
							"mn": "ADBE Vector Shape - Group",
							"hd": false
						},
						{
							"ty": "st",
							"c": { "a": 0, "k": [ 0.921568627451, 0.419607843137, 0.41568627451, 1 ], "ix": 3 },
							"o": { "a": 0, "k": 100, "ix": 4 },
							"w": { "a": 0, "k": 20, "ix": 5 },
							"lc": 1,
							"lj": 1,
							"ml": 10,
							"bm": 0,
							"nm": "Stroke 1",
							"mn": "ADBE Vector Graphic - Stroke",
							"hd": false
						},
						{
							"ty": "tr",
							"p": { "a": 0, "k": [ 0, 0 ], "ix": 2 },
							"a": { "a": 0, "k": [ 0, 0 ], "ix": 1 },
							"s": { "a": 0, "k": [ 100, 100 ], "ix": 3 },
							"r": { "a": 0, "k": 0, "ix": 6 },
							"o": { "a": 0, "k": 100, "ix": 7 },
							"sk": { "a": 0, "k": 0, "ix": 4 },
							"sa": { "a": 0, "k": 0, "ix": 5 },
							"nm": "Transform"
						}
					],
					"nm": "Group 1",
					"np": 2,
					"cix": 2,
					"bm": 0,
					"ix": 1,
					"mn": "ADBE Vector Group",
					"hd": false
				}
			],
			"ip": 581,
			"op": 1181,
			"st": 431,
			"bm": 0
		},
		{
			"ddd": 0,
			"ind": 9,
			"ty": 4,
			"nm": "x20 Outlines 2",
			"sr": 1,
			"ks": {
				"o": {
					"a": 1,
					"k": [
						{ "i": { "x": [ 0 ], "y": [ 1 ] }, "o": { "x": [ 0.333 ], "y": [ 0 ] }, "t": 171, "s": [ 0 ] },
						{
							"i": { "x": [ 0.833 ], "y": [ 1 ] },
							"o": { "x": [ 0.167 ], "y": [ 0 ] },
							"t": 182,
							"s": [ 100 ]
						},
						{
							"i": { "x": [ 0.833 ], "y": [ 1 ] },
							"o": { "x": [ 0.167 ], "y": [ 0 ] },
							"t": 203,
							"s": [ 100 ]
						},
						{ "t": 208, "s": [ 0 ] }
					],
					"ix": 11
				},
				"r": { "a": 0, "k": 0, "ix": 10 },
				"p": {
					"a": 1,
					"k": [
						{
							"i": { "x": 0, "y": 1 },
							"o": { "x": 0.333, "y": 0 },
							"t": 167,
							"s": [ 917, 459, 0 ],
							"to": [ 0, 9.5, 0 ],
							"ti": [ 0, -9.5, 0 ]
						},
						{ "t": 182, "s": [ 917, 516, 0 ] }
					],
					"ix": 2
				},
				"a": { "a": 0, "k": [ 0, 0, 0 ], "ix": 1 },
				"s": { "a": 0, "k": [ 100, 100, 100 ], "ix": 6 }
			},
			"ao": 0,
			"shapes": [
				{
					"ty": "gr",
					"it": [
						{
							"ind": 0,
							"ty": "sh",
							"ix": 1,
							"ks": {
								"a": 0,
								"k": {
									"i": [
										[ 0, 0 ],
										[ 0, 0 ],
										[ 0, 0 ],
										[ 0, 0 ],
										[ 0, 0 ],
										[ 0, 0 ],
										[ 0, 0 ],
										[ 0, 0 ],
										[ 0, 0 ],
										[ 0, 0 ],
										[ 0, 0 ],
										[ 0, 0 ]
									],
									"o": [
										[ 0, 0 ],
										[ 0, 0 ],
										[ 0, 0 ],
										[ 0, 0 ],
										[ 0, 0 ],
										[ 0, 0 ],
										[ 0, 0 ],
										[ 0, 0 ],
										[ 0, 0 ],
										[ 0, 0 ],
										[ 0, 0 ],
										[ 0, 0 ]
									],
									"v": [
										[ -15.147, 0 ],
										[ -23.647, -10.917 ],
										[ -15.59, -21.35 ],
										[ -19.82, -21.35 ],
										[ -25.661, -13.656 ],
										[ -31.542, -21.35 ],
										[ -35.853, -21.35 ],
										[ -27.836, -10.917 ],
										[ -36.255, 0 ],
										[ -31.945, 0 ],
										[ -25.701, -8.177 ],
										[ -19.538, 0 ]
									],
									"c": true
								},
								"ix": 2
							},
							"nm": "x",
							"mn": "ADBE Vector Shape - Group",
							"hd": false
						},
						{
							"ty": "fl",
							"c": { "a": 0, "k": [ 1, 1, 1, 1 ], "ix": 4 },
							"o": { "a": 0, "k": 100, "ix": 5 },
							"r": 1,
							"bm": 0,
							"nm": "Fill 1",
							"mn": "ADBE Vector Graphic - Fill",
							"hd": false
						},
						{
							"ty": "tr",
							"p": { "a": 0, "k": [ 0, 0 ], "ix": 2 },
							"a": { "a": 0, "k": [ 0, 0 ], "ix": 1 },
							"s": { "a": 0, "k": [ 100, 100 ], "ix": 3 },
							"r": { "a": 0, "k": 0, "ix": 6 },
							"o": { "a": 0, "k": 100, "ix": 7 },
							"sk": { "a": 0, "k": 0, "ix": 4 },
							"sa": { "a": 0, "k": 0, "ix": 5 },
							"nm": "Transform"
						}
					],
					"nm": "x",
					"np": 3,
					"cix": 2,
					"bm": 0,
					"ix": 1,
					"mn": "ADBE Vector Group",
					"hd": false
				},
				{
					"ty": "gr",
					"it": [
						{
							"ind": 0,
							"ty": "sh",
							"ix": 1,
							"ks": {
								"a": 0,
								"k": {
									"i": [
										[ 0, 0 ],
										[ 0, 0 ],
										[ 0, 2.739 ],
										[ 5.881, 0 ],
										[ 2.175, -2.699 ],
										[ 0, 0 ],
										[ -3.021, 0 ],
										[ 0, -2.9 ],
										[ 2.981, -2.9 ],
										[ 0, 0 ],
										[ 0, 0 ],
										[ 0, 0 ],
										[ 0, 0 ]
									],
									"o": [
										[ 0, 0 ],
										[ 3.827, -3.666 ],
										[ 0, -4.834 ],
										[ -4.391, 0 ],
										[ 0, 0 ],
										[ 1.732, -2.095 ],
										[ 3.948, 0 ],
										[ 0, 1.772 ],
										[ 0, 0 ],
										[ 0, 0 ],
										[ 0, 0 ],
										[ 0, 0 ],
										[ 0, 0 ]
									],
									"v": [
										[ -5.409, -3.505 ],
										[ 3.212, -11.803 ],
										[ 7.844, -20.665 ],
										[ -1.824, -28.521 ],
										[ -12.136, -24.25 ],
										[ -9.397, -21.874 ],
										[ -2.186, -24.935 ],
										[ 3.816, -20.262 ],
										[ 0.271, -13.817 ],
										[ -11.21, -2.739 ],
										[ -11.21, 0 ],
										[ 9.053, 0 ],
										[ 9.053, -3.505 ]
									],
									"c": true
								},
								"ix": 2
							},
							"nm": "2",
							"mn": "ADBE Vector Shape - Group",
							"hd": false
						},
						{
							"ty": "fl",
							"c": { "a": 0, "k": [ 1, 1, 1, 1 ], "ix": 4 },
							"o": { "a": 0, "k": 100, "ix": 5 },
							"r": 1,
							"bm": 0,
							"nm": "Fill 1",
							"mn": "ADBE Vector Graphic - Fill",
							"hd": false
						},
						{
							"ty": "tr",
							"p": { "a": 0, "k": [ 0, 0 ], "ix": 2 },
							"a": { "a": 0, "k": [ 0, 0 ], "ix": 1 },
							"s": { "a": 0, "k": [ 100, 100 ], "ix": 3 },
							"r": { "a": 0, "k": 0, "ix": 6 },
							"o": { "a": 0, "k": 100, "ix": 7 },
							"sk": { "a": 0, "k": 0, "ix": 4 },
							"sa": { "a": 0, "k": 0, "ix": 5 },
							"nm": "Transform"
						}
					],
					"nm": "2",
					"np": 3,
					"cix": 2,
					"bm": 0,
					"ix": 2,
					"mn": "ADBE Vector Group",
					"hd": false
				},
				{
					"ty": "gr",
					"it": [
						{
							"ind": 0,
							"ty": "sh",
							"ix": 1,
							"ks": {
								"a": 0,
								"k": {
									"i": [ [ -6.606, 0 ], [ 0, 9.185 ], [ 6.566, 0 ], [ 0, -9.185 ] ],
									"o": [ [ 6.566, 0 ], [ 0, -9.185 ], [ -6.606, 0 ], [ 0, 9.185 ] ],
									"v": [
										[ 25.594, 0.322 ],
										[ 37.075, -14.099 ],
										[ 25.594, -28.521 ],
										[ 14.073, -14.099 ]
									],
									"c": true
								},
								"ix": 2
							},
							"nm": "0",
							"mn": "ADBE Vector Shape - Group",
							"hd": false
						},
						{
							"ind": 1,
							"ty": "sh",
							"ix": 2,
							"ks": {
								"a": 0,
								"k": {
									"i": [ [ 4.391, 0 ], [ 0, 7.211 ], [ -4.431, 0 ], [ 0, -7.211 ] ],
									"o": [ [ -4.431, 0 ], [ 0, -7.211 ], [ 4.391, 0 ], [ 0, 7.211 ] ],
									"v": [
										[ 25.594, -3.263 ],
										[ 18.102, -14.099 ],
										[ 25.594, -24.935 ],
										[ 33.047, -14.099 ]
									],
									"c": true
								},
								"ix": 2
							},
							"nm": "0",
							"mn": "ADBE Vector Shape - Group",
							"hd": false
						},
						{ "ty": "mm", "mm": 1, "nm": "Merge Paths 1", "mn": "ADBE Vector Filter - Merge", "hd": false },
						{
							"ty": "fl",
							"c": { "a": 0, "k": [ 1, 1, 1, 1 ], "ix": 4 },
							"o": { "a": 0, "k": 100, "ix": 5 },
							"r": 1,
							"bm": 0,
							"nm": "Fill 1",
							"mn": "ADBE Vector Graphic - Fill",
							"hd": false
						},
						{
							"ty": "tr",
							"p": { "a": 0, "k": [ 0, 0 ], "ix": 2 },
							"a": { "a": 0, "k": [ 0, 0 ], "ix": 1 },
							"s": { "a": 0, "k": [ 100, 100 ], "ix": 3 },
							"r": { "a": 0, "k": 0, "ix": 6 },
							"o": { "a": 0, "k": 100, "ix": 7 },
							"sk": { "a": 0, "k": 0, "ix": 4 },
							"sa": { "a": 0, "k": 0, "ix": 5 },
							"nm": "Transform"
						}
					],
					"nm": "0",
					"np": 5,
					"cix": 2,
					"bm": 0,
					"ix": 3,
					"mn": "ADBE Vector Group",
					"hd": false
				}
			],
			"ip": 156,
			"op": 803,
			"st": 53,
			"bm": 0
		},
		{
			"ddd": 0,
			"ind": 10,
			"ty": 4,
			"nm": "x10 Outlines 2",
			"sr": 1,
			"ks": {
				"o": {
					"a": 1,
					"k": [
						{ "i": { "x": [ 0 ], "y": [ 1 ] }, "o": { "x": [ 0.333 ], "y": [ 0 ] }, "t": 139, "s": [ 0 ] },
						{
							"i": { "x": [ 0.833 ], "y": [ 1 ] },
							"o": { "x": [ 0.167 ], "y": [ 0 ] },
							"t": 150,
							"s": [ 100 ]
						},
						{
							"i": { "x": [ 0.833 ], "y": [ 1 ] },
							"o": { "x": [ 0.167 ], "y": [ 0 ] },
							"t": 203,
							"s": [ 100 ]
						},
						{ "t": 208, "s": [ 0 ] }
					],
					"ix": 11
				},
				"r": { "a": 0, "k": 0, "ix": 10 },
				"p": {
					"a": 1,
					"k": [
						{
							"i": { "x": 0, "y": 1 },
							"o": { "x": 0.333, "y": 0 },
							"t": 135,
							"s": [ 801, 459, 0 ],
							"to": [ 0, 9.5, 0 ],
							"ti": [ 0, -9.5, 0 ]
						},
						{ "t": 150, "s": [ 801, 516, 0 ] }
					],
					"ix": 2
				},
				"a": { "a": 0, "k": [ 0, 0, 0 ], "ix": 1 },
				"s": { "a": 0, "k": [ 100, 100, 100 ], "ix": 6 }
			},
			"ao": 0,
			"shapes": [
				{
					"ty": "gr",
					"it": [
						{
							"ind": 0,
							"ty": "sh",
							"ix": 1,
							"ks": {
								"a": 0,
								"k": {
									"i": [
										[ 0, 0 ],
										[ 0, 0 ],
										[ 0, 0 ],
										[ 0, 0 ],
										[ 0, 0 ],
										[ 0, 0 ],
										[ 0, 0 ],
										[ 0, 0 ],
										[ 0, 0 ],
										[ 0, 0 ],
										[ 0, 0 ],
										[ 0, 0 ]
									],
									"o": [
										[ 0, 0 ],
										[ 0, 0 ],
										[ 0, 0 ],
										[ 0, 0 ],
										[ 0, 0 ],
										[ 0, 0 ],
										[ 0, 0 ],
										[ 0, 0 ],
										[ 0, 0 ],
										[ 0, 0 ],
										[ 0, 0 ],
										[ 0, 0 ]
									],
									"v": [
										[ -11.267, 0 ],
										[ -19.767, -10.917 ],
										[ -11.71, -21.35 ],
										[ -15.94, -21.35 ],
										[ -21.781, -13.656 ],
										[ -27.662, -21.35 ],
										[ -31.972, -21.35 ],
										[ -23.956, -10.917 ],
										[ -32.375, 0 ],
										[ -28.065, 0 ],
										[ -21.821, -8.177 ],
										[ -15.658, 0 ]
									],
									"c": true
								},
								"ix": 2
							},
							"nm": "x",
							"mn": "ADBE Vector Shape - Group",
							"hd": false
						},
						{
							"ty": "fl",
							"c": { "a": 0, "k": [ 1, 1, 1, 1 ], "ix": 4 },
							"o": { "a": 0, "k": 100, "ix": 5 },
							"r": 1,
							"bm": 0,
							"nm": "Fill 1",
							"mn": "ADBE Vector Graphic - Fill",
							"hd": false
						},
						{
							"ty": "tr",
							"p": { "a": 0, "k": [ 0, 0 ], "ix": 2 },
							"a": { "a": 0, "k": [ 0, 0 ], "ix": 1 },
							"s": { "a": 0, "k": [ 100, 100 ], "ix": 3 },
							"r": { "a": 0, "k": 0, "ix": 6 },
							"o": { "a": 0, "k": 100, "ix": 7 },
							"sk": { "a": 0, "k": 0, "ix": 4 },
							"sa": { "a": 0, "k": 0, "ix": 5 },
							"nm": "Transform"
						}
					],
					"nm": "x",
					"np": 3,
					"cix": 2,
					"bm": 0,
					"ix": 1,
					"mn": "ADBE Vector Group",
					"hd": false
				},
				{
					"ty": "gr",
					"it": [
						{
							"ind": 0,
							"ty": "sh",
							"ix": 1,
							"ks": {
								"a": 0,
								"k": {
									"i": [ [ 0, 0 ], [ 0, 0 ], [ 0, 0 ], [ 0, 0 ], [ 0, 0 ], [ 0, 0 ] ],
									"o": [ [ 0, 0 ], [ 0, 0 ], [ 0, 0 ], [ 0, 0 ], [ 0, 0 ], [ 0, 0 ] ],
									"v": [
										[ -8.218, -28.198 ],
										[ -8.218, -24.694 ],
										[ -1.853, -24.694 ],
										[ -1.853, 0 ],
										[ 2.135, 0 ],
										[ 2.135, -28.198 ]
									],
									"c": true
								},
								"ix": 2
							},
							"nm": "1",
							"mn": "ADBE Vector Shape - Group",
							"hd": false
						},
						{
							"ty": "fl",
							"c": { "a": 0, "k": [ 1, 1, 1, 1 ], "ix": 4 },
							"o": { "a": 0, "k": 100, "ix": 5 },
							"r": 1,
							"bm": 0,
							"nm": "Fill 1",
							"mn": "ADBE Vector Graphic - Fill",
							"hd": false
						},
						{
							"ty": "tr",
							"p": { "a": 0, "k": [ 0, 0 ], "ix": 2 },
							"a": { "a": 0, "k": [ 0, 0 ], "ix": 1 },
							"s": { "a": 0, "k": [ 100, 100 ], "ix": 3 },
							"r": { "a": 0, "k": 0, "ix": 6 },
							"o": { "a": 0, "k": 100, "ix": 7 },
							"sk": { "a": 0, "k": 0, "ix": 4 },
							"sa": { "a": 0, "k": 0, "ix": 5 },
							"nm": "Transform"
						}
					],
					"nm": "1",
					"np": 3,
					"cix": 2,
					"bm": 0,
					"ix": 2,
					"mn": "ADBE Vector Group",
					"hd": false
				},
				{
					"ty": "gr",
					"it": [
						{
							"ind": 0,
							"ty": "sh",
							"ix": 1,
							"ks": {
								"a": 0,
								"k": {
									"i": [ [ -6.606, 0 ], [ 0, 9.185 ], [ 6.566, 0 ], [ 0, -9.185 ] ],
									"o": [ [ 6.566, 0 ], [ 0, -9.185 ], [ -6.606, 0 ], [ 0, 9.185 ] ],
									"v": [
										[ 21.714, 0.322 ],
										[ 33.195, -14.099 ],
										[ 21.714, -28.521 ],
										[ 10.193, -14.099 ]
									],
									"c": true
								},
								"ix": 2
							},
							"nm": "0",
							"mn": "ADBE Vector Shape - Group",
							"hd": false
						},
						{
							"ind": 1,
							"ty": "sh",
							"ix": 2,
							"ks": {
								"a": 0,
								"k": {
									"i": [ [ 4.391, 0 ], [ 0, 7.211 ], [ -4.431, 0 ], [ 0, -7.211 ] ],
									"o": [ [ -4.431, 0 ], [ 0, -7.211 ], [ 4.391, 0 ], [ 0, 7.211 ] ],
									"v": [
										[ 21.714, -3.263 ],
										[ 14.222, -14.099 ],
										[ 21.714, -24.935 ],
										[ 29.167, -14.099 ]
									],
									"c": true
								},
								"ix": 2
							},
							"nm": "0",
							"mn": "ADBE Vector Shape - Group",
							"hd": false
						},
						{ "ty": "mm", "mm": 1, "nm": "Merge Paths 1", "mn": "ADBE Vector Filter - Merge", "hd": false },
						{
							"ty": "fl",
							"c": { "a": 0, "k": [ 1, 1, 1, 1 ], "ix": 4 },
							"o": { "a": 0, "k": 100, "ix": 5 },
							"r": 1,
							"bm": 0,
							"nm": "Fill 1",
							"mn": "ADBE Vector Graphic - Fill",
							"hd": false
						},
						{
							"ty": "tr",
							"p": { "a": 0, "k": [ 0, 0 ], "ix": 2 },
							"a": { "a": 0, "k": [ 0, 0 ], "ix": 1 },
							"s": { "a": 0, "k": [ 100, 100 ], "ix": 3 },
							"r": { "a": 0, "k": 0, "ix": 6 },
							"o": { "a": 0, "k": 100, "ix": 7 },
							"sk": { "a": 0, "k": 0, "ix": 4 },
							"sa": { "a": 0, "k": 0, "ix": 5 },
							"nm": "Transform"
						}
					],
					"nm": "0",
					"np": 5,
					"cix": 2,
					"bm": 0,
					"ix": 3,
					"mn": "ADBE Vector Group",
					"hd": false
				}
			],
			"ip": 124,
			"op": 771,
			"st": 21,
			"bm": 0
		},
		{
			"ddd": 0,
			"ind": 11,
			"ty": 4,
			"nm": "MATTE 3",
			"sr": 1,
			"ks": {
				"o": {
					"a": 1,
					"k": [
						{
							"i": { "x": [ 0.833 ], "y": [ 0.833 ] },
							"o": { "x": [ 0.167 ], "y": [ 0.167 ] },
							"t": 25,
							"s": [ 100 ]
						},
						{ "t": 31, "s": [ 0 ] }
					],
					"ix": 11
				},
				"r": { "a": 0, "k": 0, "ix": 10 },
				"p": { "a": 0, "k": [ 560, 570, 0 ], "ix": 2 },
				"a": { "a": 0, "k": [ -20, -32, 0 ], "ix": 1 },
				"s": {
					"a": 1,
					"k": [
						{
							"i": { "x": [ 0.667, 0.667, 0.667 ], "y": [ 1, 1, 1 ] },
							"o": { "x": [ 0.333, 0.333, 0.333 ], "y": [ 0, 0, 0 ] },
							"t": 11,
							"s": [ 107.627, 107.627, 100 ]
						},
						{ "t": 41, "s": [ 178.942, 178.942, 100 ] }
					],
					"ix": 6
				}
			},
			"ao": 0,
			"shapes": [
				{
					"ty": "gr",
					"it": [
						{
							"ty": "gr",
							"it": [
								{
									"ty": "rc",
									"d": 1,
									"s": { "a": 0, "k": [ 1044.346, 1044.346 ], "ix": 2 },
									"p": { "a": 0, "k": [ 0, 0 ], "ix": 3 },
									"r": { "a": 0, "k": 0, "ix": 4 },
									"nm": "Rectangle Path 1",
									"mn": "ADBE Vector Shape - Rect",
									"hd": false
								},
								{
									"ty": "st",
									"c": { "a": 0, "k": [ 1, 0.270996003992, 0.128997997209, 1 ], "ix": 3 },
									"o": { "a": 0, "k": 100, "ix": 4 },
									"w": { "a": 0, "k": 0, "ix": 5 },
									"lc": 1,
									"lj": 1,
									"ml": 4,
									"bm": 0,
									"nm": "Stroke 1",
									"mn": "ADBE Vector Graphic - Stroke",
									"hd": false
								},
								{
									"ty": "tr",
									"p": { "a": 0, "k": [ -27.433, -39.433 ], "ix": 2 },
									"a": { "a": 0, "k": [ 0, 0 ], "ix": 1 },
									"s": { "a": 0, "k": [ 100, 100 ], "ix": 3 },
									"r": { "a": 0, "k": 0, "ix": 6 },
									"o": { "a": 0, "k": 100, "ix": 7 },
									"sk": { "a": 0, "k": 0, "ix": 4 },
									"sa": { "a": 0, "k": 0, "ix": 5 },
									"nm": "Transform"
								}
							],
							"nm": "Rectangle 1",
							"np": 2,
							"cix": 2,
							"bm": 0,
							"ix": 1,
							"mn": "ADBE Vector Group",
							"hd": false
						},
						{
							"ty": "gf",
							"o": { "a": 0, "k": 100, "ix": 10 },
							"r": 1,
							"bm": 0,
							"g": {
								"p": 3,
								"k": {
									"a": 0,
									"k": [
										0,
										0.149,
										0.141,
										0.22,
										0.5,
										0.149,
										0.141,
										0.22,
										1,
										0.149,
										0.141,
										0.22,
										0,
										0,
										0.5,
										0.5,
										1,
										1
									],
									"ix": 9
								}
							},
							"s": { "a": 0, "k": [ -27.022, -37.628 ], "ix": 5 },
							"e": {
								"a": 1,
								"k": [
									{
										"i": { "x": 0.667, "y": 1 },
										"o": { "x": 0.333, "y": 0 },
										"t": 8,
										"s": [ -387.326, -46.719 ],
										"to": [ -37.862, 0.562 ],
										"ti": [ 37.862, -0.562 ]
									},
									{ "t": 41, "s": [ -614.496, -43.345 ] }
								],
								"ix": 6
							},
							"t": 2,
							"h": { "a": 0, "k": 0, "ix": 7 },
							"a": { "a": 0, "k": 0, "ix": 8 },
							"nm": "Gradient Fill 1",
							"mn": "ADBE Vector Graphic - G-Fill",
							"hd": false
						},
						{
							"ty": "tr",
							"p": { "a": 0, "k": [ -27.433, -39.433 ], "ix": 2 },
							"a": { "a": 0, "k": [ -27.433, -39.433 ], "ix": 1 },
							"s": { "a": 0, "k": [ 104.115, 104.115 ], "ix": 3 },
							"r": { "a": 0, "k": 0, "ix": 6 },
							"o": { "a": 0, "k": 100, "ix": 7 },
							"sk": { "a": 0, "k": 0, "ix": 4 },
							"sa": { "a": 0, "k": 0, "ix": 5 },
							"nm": "Transform"
						}
					],
					"nm": "Group 1",
					"np": 2,
					"cix": 2,
					"bm": 0,
					"ix": 1,
					"mn": "ADBE Vector Group",
					"hd": false
				}
			],
			"ip": 0,
			"op": 50,
			"st": 0,
			"bm": 0
		},
		{
			"ddd": 0,
			"ind": 14,
			"ty": 3,
			"nm": "Null 2",
			"sr": 1,
			"ks": {
				"o": { "a": 0, "k": 0, "ix": 11 },
				"r": {
					"a": 1,
					"k": [
						{
							"i": { "x": [ 0.194 ], "y": [ 1 ] },
							"o": { "x": [ 0.874 ], "y": [ 0 ] },
							"t": 219,
							"s": [ 0 ]
						},
						{
							"i": { "x": [ 0.667 ], "y": [ 1 ] },
							"o": { "x": [ 0.333 ], "y": [ 0 ] },
							"t": 243,
							"s": [ -25 ]
						},
						{
							"i": { "x": [ 0.225 ], "y": [ 1 ] },
							"o": { "x": [ 0.831 ], "y": [ 0 ] },
							"t": 315,
							"s": [ -25 ]
						},
						{
							"i": { "x": [ 0.667 ], "y": [ 1 ] },
							"o": { "x": [ 0.167 ], "y": [ 0 ] },
							"t": 336,
							"s": [ 32 ]
						},
						{
							"i": { "x": [ 0.193 ], "y": [ 1 ] },
							"o": { "x": [ 0.333 ], "y": [ 0 ] },
							"t": 405,
							"s": [ 32 ]
						},
						{ "t": 416, "s": [ 0 ] }
					],
					"ix": 10
				},
				"p": { "a": 0, "k": [ 444, 560, 0 ], "ix": 2 },
				"a": { "a": 0, "k": [ -116, 0, 0 ], "ix": 1 },
				"s": { "a": 0, "k": [ 100, 100, 100 ], "ix": 6 }
			},
			"ao": 0,
			"ip": 0,
			"op": 750,
			"st": 0,
			"bm": 0
		},
		{
			"ddd": 0,
			"ind": 15,
			"ty": 4,
			"nm": "arrow Outlines 5",
			"sr": 1,
			"ks": {
				"o": { "a": 0, "k": 100, "ix": 11 },
				"r": { "a": 0, "k": 360, "ix": 10 },
				"p": { "a": 0, "k": [ 915.462, 706.113, 0 ], "ix": 2 },
				"a": { "a": 0, "k": [ 35.482, 152.153, 0 ], "ix": 1 },
				"s": { "a": 0, "k": [ 100, 100, 100 ], "ix": 6 }
			},
			"ao": 0,
			"shapes": [
				{
					"ty": "gr",
					"it": [
						{
							"ind": 0,
							"ty": "sh",
							"ix": 1,
							"ks": {
								"a": 0,
								"k": {
									"i": [ [ 0, 0 ], [ 0, 0 ] ],
									"o": [ [ 0, 0 ], [ 0, 0 ] ],
									"v": [ [ 35.019, -226.097 ], [ 35.482, 279.597 ] ],
									"c": false
								},
								"ix": 2
							},
							"nm": "Path 1",
							"mn": "ADBE Vector Shape - Group",
							"hd": false
						},
						{
							"ty": "gs",
							"o": { "a": 0, "k": 100, "ix": 9 },
							"w": { "a": 0, "k": 7.805, "ix": 10 },
							"g": {
								"p": 3,
								"k": {
									"a": 0,
									"k": [ 0, 0.361, 0.278, 0.518, 0.5, 0.478, 0.398, 0.606, 1, 0.596, 0.518, 0.694 ],
									"ix": 8
								}
							},
							"s": { "a": 0, "k": [ 19, -232 ], "ix": 4 },
							"e": { "a": 0, "k": [ 22, 275 ], "ix": 5 },
							"t": 1,
							"lc": 1,
							"lj": 1,
							"ml": 10,
							"ml2": { "a": 0, "k": 10, "ix": 13 },
							"bm": 0,
							"d": [
								{ "n": "d", "nm": "dash", "v": { "a": 0, "k": 15, "ix": 1 } },
								{ "n": "o", "nm": "offset", "v": { "a": 0, "k": 0, "ix": 7 } }
							],
							"nm": "Gradient Stroke 1",
							"mn": "ADBE Vector Graphic - G-Stroke",
							"hd": false
						},
						{
							"ty": "tr",
							"p": { "a": 0, "k": [ 0, 0 ], "ix": 2 },
							"a": { "a": 0, "k": [ 0, 0 ], "ix": 1 },
							"s": { "a": 0, "k": [ 100, 100 ], "ix": 3 },
							"r": { "a": 0, "k": 0, "ix": 6 },
							"o": { "a": 0, "k": 100, "ix": 7 },
							"sk": { "a": 0, "k": 0, "ix": 4 },
							"sa": { "a": 0, "k": 0, "ix": 5 },
							"nm": "Transform"
						}
					],
					"nm": "Group 2",
					"np": 2,
					"cix": 2,
					"bm": 0,
					"ix": 1,
					"mn": "ADBE Vector Group",
					"hd": false
				},
				{
					"ty": "gr",
					"it": [
						{
							"ind": 0,
							"ty": "sh",
							"ix": 1,
							"ks": {
								"a": 0,
								"k": {
									"i": [ [ 0, 0 ], [ 0, 0 ], [ 0, 0 ] ],
									"o": [ [ 0, 0 ], [ 0, 0 ], [ 0, 0 ] ],
									"v": [ [ -15.97, -12.113 ], [ 0, 12.113 ], [ 15.97, -12.113 ] ],
									"c": false
								},
								"ix": 2
							},
							"nm": "Path 1",
							"mn": "ADBE Vector Shape - Group",
							"hd": false
						},
						{
							"ty": "st",
							"c": { "a": 0, "k": [ 0.596078431373, 0.517647058824, 0.694117647059, 1 ], "ix": 3 },
							"o": { "a": 0, "k": 100, "ix": 4 },
							"w": { "a": 0, "k": 8, "ix": 5 },
							"lc": 2,
							"lj": 1,
							"ml": 4,
							"bm": 0,
							"nm": "Stroke 1",
							"mn": "ADBE Vector Graphic - Stroke",
							"hd": false
						},
						{
							"ty": "tr",
							"p": { "a": 0, "k": [ 35.482, 272.68 ], "ix": 2 },
							"a": { "a": 0, "k": [ 0, 0 ], "ix": 1 },
							"s": { "a": 0, "k": [ 100, 100 ], "ix": 3 },
							"r": { "a": 0, "k": 0, "ix": 6 },
							"o": { "a": 0, "k": 100, "ix": 7 },
							"sk": { "a": 0, "k": 0, "ix": 4 },
							"sa": { "a": 0, "k": 0, "ix": 5 },
							"nm": "Transform"
						}
					],
					"nm": "Group 1",
					"np": 2,
					"cix": 2,
					"bm": 0,
					"ix": 2,
					"mn": "ADBE Vector Group",
					"hd": false
				},
				{
					"ty": "tm",
					"s": {
						"a": 1,
						"k": [
							{
								"i": { "x": [ 0.833 ], "y": [ 0.833 ] },
								"o": { "x": [ 0.167 ], "y": [ 0.167 ] },
								"t": 332,
								"s": [ 0 ]
							},
							{ "t": 347, "s": [ 100 ] }
						],
						"ix": 1
					},
					"e": {
						"a": 1,
						"k": [
							{
								"i": { "x": [ 0.667 ], "y": [ 1 ] },
								"o": { "x": [ 0.333 ], "y": [ 0 ] },
								"t": 320,
								"s": [ 0 ]
							},
							{ "t": 335, "s": [ 100 ] }
						],
						"ix": 2
					},
					"o": { "a": 0, "k": 0, "ix": 3 },
					"m": 2,
					"ix": 3,
					"nm": "Trim Paths 1",
					"mn": "ADBE Vector Filter - Trim",
					"hd": false
				}
			],
			"ip": 188,
			"op": 364,
			"st": 188,
			"bm": 0
		},
		{
			"ddd": 0,
			"ind": 16,
			"ty": 4,
			"nm": "arrow Outlines 2",
			"sr": 1,
			"ks": {
				"o": { "a": 0, "k": 100, "ix": 11 },
				"r": { "a": 0, "k": 180, "ix": 10 },
				"p": { "a": 0, "k": [ 915.462, 462.113, 0 ], "ix": 2 },
				"a": { "a": 0, "k": [ 35.482, 152.153, 0 ], "ix": 1 },
				"s": { "a": 0, "k": [ 100, 100, 100 ], "ix": 6 }
			},
			"ao": 0,
			"shapes": [
				{
					"ty": "gr",
					"it": [
						{
							"ind": 0,
							"ty": "sh",
							"ix": 1,
							"ks": {
								"a": 0,
								"k": {
									"i": [ [ 0, 0 ], [ 0, 0 ] ],
									"o": [ [ 0, 0 ], [ 0, 0 ] ],
									"v": [ [ 35.02, -80.097 ], [ 35.482, 279.597 ] ],
									"c": false
								},
								"ix": 2
							},
							"nm": "Path 1",
							"mn": "ADBE Vector Shape - Group",
							"hd": false
						},
						{
							"ty": "gs",
							"o": { "a": 0, "k": 100, "ix": 9 },
							"w": { "a": 0, "k": 7.805, "ix": 10 },
							"g": {
								"p": 3,
								"k": {
									"a": 0,
									"k": [ 0, 0.298, 0.404, 0.518, 0.5, 0.4, 0.563, 0.608, 1, 0.502, 0.722, 0.698 ],
									"ix": 8
								}
							},
							"s": { "a": 0, "k": [ 19, -81 ], "ix": 4 },
							"e": { "a": 0, "k": [ 22, 275 ], "ix": 5 },
							"t": 1,
							"lc": 1,
							"lj": 1,
							"ml": 10,
							"ml2": { "a": 0, "k": 10, "ix": 13 },
							"bm": 0,
							"d": [
								{ "n": "d", "nm": "dash", "v": { "a": 0, "k": 15, "ix": 1 } },
								{ "n": "o", "nm": "offset", "v": { "a": 0, "k": 0, "ix": 7 } }
							],
							"nm": "Gradient Stroke 1",
							"mn": "ADBE Vector Graphic - G-Stroke",
							"hd": false
						},
						{
							"ty": "tr",
							"p": { "a": 0, "k": [ 0, 0 ], "ix": 2 },
							"a": { "a": 0, "k": [ 0, 0 ], "ix": 1 },
							"s": { "a": 0, "k": [ 100, 100 ], "ix": 3 },
							"r": { "a": 0, "k": 0, "ix": 6 },
							"o": { "a": 0, "k": 100, "ix": 7 },
							"sk": { "a": 0, "k": 0, "ix": 4 },
							"sa": { "a": 0, "k": 0, "ix": 5 },
							"nm": "Transform"
						}
					],
					"nm": "Group 2",
					"np": 2,
					"cix": 2,
					"bm": 0,
					"ix": 1,
					"mn": "ADBE Vector Group",
					"hd": false
				},
				{
					"ty": "gr",
					"it": [
						{
							"ind": 0,
							"ty": "sh",
							"ix": 1,
							"ks": {
								"a": 0,
								"k": {
									"i": [ [ 0, 0 ], [ 0, 0 ], [ 0, 0 ] ],
									"o": [ [ 0, 0 ], [ 0, 0 ], [ 0, 0 ] ],
									"v": [ [ -15.97, -12.113 ], [ 0, 12.113 ], [ 15.97, -12.113 ] ],
									"c": false
								},
								"ix": 2
							},
							"nm": "Path 1",
							"mn": "ADBE Vector Shape - Group",
							"hd": false
						},
						{
							"ty": "st",
							"c": { "a": 0, "k": [ 0.501960813999, 0.721568644047, 0.698039233685, 1 ], "ix": 3 },
							"o": { "a": 0, "k": 100, "ix": 4 },
							"w": { "a": 0, "k": 8, "ix": 5 },
							"lc": 2,
							"lj": 1,
							"ml": 4,
							"bm": 0,
							"nm": "Stroke 1",
							"mn": "ADBE Vector Graphic - Stroke",
							"hd": false
						},
						{
							"ty": "tr",
							"p": { "a": 0, "k": [ 35.482, 272.68 ], "ix": 2 },
							"a": { "a": 0, "k": [ 0, 0 ], "ix": 1 },
							"s": { "a": 0, "k": [ 100, 100 ], "ix": 3 },
							"r": { "a": 0, "k": 0, "ix": 6 },
							"o": { "a": 0, "k": 100, "ix": 7 },
							"sk": { "a": 0, "k": 0, "ix": 4 },
							"sa": { "a": 0, "k": 0, "ix": 5 },
							"nm": "Transform"
						}
					],
					"nm": "Group 1",
					"np": 2,
					"cix": 2,
					"bm": 0,
					"ix": 2,
					"mn": "ADBE Vector Group",
					"hd": false
				},
				{
					"ty": "tm",
					"s": {
						"a": 1,
						"k": [
							{
								"i": { "x": [ 0.833 ], "y": [ 0.833 ] },
								"o": { "x": [ 0.167 ], "y": [ 0.167 ] },
								"t": 242,
								"s": [ 0 ]
							},
							{ "t": 257, "s": [ 100 ] }
						],
						"ix": 1
					},
					"e": {
						"a": 1,
						"k": [
							{
								"i": { "x": [ 0.667 ], "y": [ 1 ] },
								"o": { "x": [ 0.333 ], "y": [ 0 ] },
								"t": 230,
								"s": [ 0 ]
							},
							{ "t": 245, "s": [ 100 ] }
						],
						"ix": 2
					},
					"o": { "a": 0, "k": 0, "ix": 3 },
					"m": 2,
					"ix": 3,
					"nm": "Trim Paths 1",
					"mn": "ADBE Vector Filter - Trim",
					"hd": false
				}
			],
			"ip": 98,
			"op": 274,
			"st": 98,
			"bm": 0
		},
		{
			"ddd": 0,
			"ind": 17,
			"ty": 4,
			"nm": "ground Outlines 2",
			"parent": 1,
			"sr": 1,
			"ks": {
				"o": { "a": 0, "k": 100, "ix": 11 },
				"r": { "a": 0, "k": 0, "ix": 10 },
				"p": { "a": 0, "k": [ 0, 138.493, 0 ], "ix": 2 },
				"a": { "a": 0, "k": [ 455.423, 2.5, 0 ], "ix": 1 },
				"s": { "a": 0, "k": [ 100, 100, 100 ], "ix": 6 }
			},
			"ao": 0,
			"shapes": [
				{
					"ty": "gr",
					"it": [
						{
							"ind": 0,
							"ty": "sh",
							"ix": 1,
							"ks": {
								"a": 0,
								"k": {
									"i": [ [ 0, 0 ], [ 0, 0 ] ],
									"o": [ [ 0, 0 ], [ 0, 0 ] ],
									"v": [ [ 2.5, 2.5 ], [ 908.346, 2.5 ] ],
									"c": false
								},
								"ix": 2
							},
							"nm": "Path 1",
							"mn": "ADBE Vector Shape - Group",
							"hd": false
						},
						{
							"ty": "st",
							"c": { "a": 0, "k": [ 0, 0.62400004069, 0.838999968884, 1 ], "ix": 3 },
							"o": { "a": 0, "k": 100, "ix": 4 },
							"w": { "a": 0, "k": 5, "ix": 5 },
							"lc": 2,
							"lj": 1,
							"ml": 10,
							"bm": 0,
							"nm": "Stroke 1",
							"mn": "ADBE Vector Graphic - Stroke",
							"hd": false
						},
						{
							"ty": "tr",
							"p": { "a": 0, "k": [ 0, 0 ], "ix": 2 },
							"a": { "a": 0, "k": [ 0, 0 ], "ix": 1 },
							"s": { "a": 0, "k": [ 100, 100 ], "ix": 3 },
							"r": { "a": 0, "k": 0, "ix": 6 },
							"o": { "a": 0, "k": 100, "ix": 7 },
							"sk": { "a": 0, "k": 0, "ix": 4 },
							"sa": { "a": 0, "k": 0, "ix": 5 },
							"nm": "Transform"
						}
					],
					"nm": "Group 1",
					"np": 2,
					"cix": 2,
					"bm": 0,
					"ix": 1,
					"mn": "ADBE Vector Group",
					"hd": false
				},
				{
					"ty": "tm",
					"s": {
						"a": 1,
						"k": [
							{
								"i": { "x": [ 0.667 ], "y": [ 1 ] },
								"o": { "x": [ 0.333 ], "y": [ 0 ] },
								"t": 434,
								"s": [ 100 ]
							},
							{
								"i": { "x": [ 0.833 ], "y": [ 1 ] },
								"o": { "x": [ 0.167 ], "y": [ 0 ] },
								"t": 441,
								"s": [ 50 ]
							},
							{
								"i": { "x": [ 0.833 ], "y": [ 1 ] },
								"o": { "x": [ 0.167 ], "y": [ 0 ] },
								"t": 498,
								"s": [ 50 ]
							},
							{ "t": 502, "s": [ 100 ] }
						],
						"ix": 1
					},
					"e": {
						"a": 1,
						"k": [
							{
								"i": { "x": [ 0.667 ], "y": [ 1 ] },
								"o": { "x": [ 0.333 ], "y": [ 0 ] },
								"t": 434,
								"s": [ 0 ]
							},
							{
								"i": { "x": [ 0.833 ], "y": [ 1 ] },
								"o": { "x": [ 0.167 ], "y": [ 0 ] },
								"t": 441,
								"s": [ 50 ]
							},
							{
								"i": { "x": [ 0.833 ], "y": [ 1 ] },
								"o": { "x": [ 0.167 ], "y": [ 0 ] },
								"t": 498,
								"s": [ 50 ]
							},
							{ "t": 502, "s": [ 0 ] }
						],
						"ix": 2
					},
					"o": { "a": 0, "k": 0, "ix": 3 },
					"m": 1,
					"ix": 2,
					"nm": "Trim Paths 1",
					"mn": "ADBE Vector Filter - Trim",
					"hd": false
				}
			],
			"ip": 431,
			"op": 551,
			"st": 333,
			"bm": 0
		},
		{
			"ddd": 0,
			"ind": 18,
			"ty": 4,
			"nm": "lever Outlines 6",
			"sr": 1,
			"ks": {
				"o": { "a": 0, "k": 100, "ix": 11 },
				"r": {
					"a": 1,
					"k": [
						{
							"i": { "x": [ 0.687 ], "y": [ 1 ] },
							"o": { "x": [ 0.354 ], "y": [ 0 ] },
							"t": 438,
							"s": [ 0 ]
						},
						{
							"i": { "x": [ 0.701 ], "y": [ 0.772 ] },
							"o": { "x": [ 0.37 ], "y": [ 0.446 ] },
							"t": 443,
							"s": [ 0 ]
						},
						{
							"i": { "x": [ 0.674 ], "y": [ 1 ] },
							"o": { "x": [ 0.341 ], "y": [ 0 ] },
							"t": 459,
							"s": [ 0 ]
						},
						{
							"i": { "x": [ 0.674 ], "y": [ 1 ] },
							"o": { "x": [ 0.568 ], "y": [ 0 ] },
							"t": 462,
							"s": [ 5 ]
						},
						{
							"i": { "x": [ 0.701 ], "y": [ 1 ] },
							"o": { "x": [ 0.568 ], "y": [ 0 ] },
							"t": 465,
							"s": [ 5 ]
						},
						{
							"i": { "x": [ 0.667 ], "y": [ 1 ] },
							"o": { "x": [ 0.341 ], "y": [ -0.407 ] },
							"t": 468,
							"s": [ 0 ]
						},
						{
							"i": { "x": [ 0.667 ], "y": [ 1 ] },
							"o": { "x": [ 0.333 ], "y": [ 0 ] },
							"t": 493,
							"s": [ 0 ]
						},
						{
							"i": { "x": [ 0.601 ], "y": [ 1 ] },
							"o": { "x": [ 0.333 ], "y": [ 0 ] },
							"t": 500,
							"s": [ 18 ]
						},
						{ "t": 533, "s": [ 18 ] }
					],
					"ix": 10
				},
				"p": {
					"a": 1,
					"k": [
						{
							"i": { "x": 0.655, "y": 1 },
							"o": { "x": 0.333, "y": 0 },
							"t": 438,
							"s": [ 558, 560, 0 ],
							"to": [ 0, 0, 0 ],
							"ti": [ 0, 0, 0 ]
						},
						{
							"i": { "x": 0.667, "y": 0.667 },
							"o": { "x": 0.333, "y": 0.333 },
							"t": 443,
							"s": [ 559, 687, 0 ],
							"to": [ 0, 0, 0 ],
							"ti": [ 0, 0, 0 ]
						},
						{
							"i": { "x": 0.667, "y": 0.667 },
							"o": { "x": 0.333, "y": 0.333 },
							"t": 459,
							"s": [ 559, 687, 0 ],
							"to": [ 0, 0, 0 ],
							"ti": [ 0, 0, 0 ]
						},
						{
							"i": { "x": 0.667, "y": 1 },
							"o": { "x": 0.333, "y": 0 },
							"t": 492,
							"s": [ 559, 687, 0 ],
							"to": [ 0, 0, 0 ],
							"ti": [ 0, 0, 0 ]
						},
						{ "t": 500, "s": [ 560, 560, 0 ] }
					],
					"ix": 2
				},
				"a": { "a": 0, "k": [ 423, 10, 0 ], "ix": 1 },
				"s": { "a": 0, "k": [ 100, 100, 100 ], "ix": 6 }
			},
			"ao": 0,
			"shapes": [
				{
					"ty": "gr",
					"it": [
						{
							"ind": 0,
							"ty": "sh",
							"ix": 1,
							"ks": {
								"a": 1,
								"k": [
									{
										"i": { "x": 0.227, "y": 1 },
										"o": { "x": 0.333, "y": 0 },
										"t": 443,
										"s": [
											{
												"i": [ [ 0, 0 ], [ 0, 0 ], [ 0, 0 ] ],
												"o": [ [ 0, 0 ], [ 0, 0 ], [ 0, 0 ] ],
												"v": [ [ 10, 10 ], [ 425, 10 ], [ 836, 10 ] ],
												"c": false
											}
										]
									},
									{
										"i": { "x": 0.833, "y": 1 },
										"o": { "x": 0.167, "y": 0 },
										"t": 450,
										"s": [
											{
												"i": [ [ 0, 0 ], [ -279, 0.012 ], [ 0, 0 ] ],
												"o": [ [ 0, 0 ], [ 279, -0.012 ], [ 0, 0 ] ],
												"v": [ [ 10, 10 ], [ 425.004, 204 ], [ 836, 10 ] ],
												"c": false
											}
										]
									},
									{
										"i": { "x": 0.833, "y": 1 },
										"o": { "x": 0.167, "y": 0 },
										"t": 492,
										"s": [
											{
												"i": [ [ 0, 0 ], [ -279, 0.012 ], [ 0, 0 ] ],
												"o": [ [ 0, 0 ], [ 279, -0.012 ], [ 0, 0 ] ],
												"v": [ [ 10, 10 ], [ 425.004, 204 ], [ 836, 10 ] ],
												"c": false
											}
										]
									},
									{
										"t": 500,
										"s": [
											{
												"i": [ [ 0, 0 ], [ 0, 0 ], [ 0, 0 ] ],
												"o": [ [ 0, 0 ], [ 0, 0 ], [ 0, 0 ] ],
												"v": [ [ 10, 10 ], [ 425, 10 ], [ 836, 10 ] ],
												"c": false
											}
										]
									}
								],
								"ix": 2
							},
							"nm": "Path 1",
							"mn": "ADBE Vector Shape - Group",
							"hd": false
						},
						{
							"ty": "st",
							"c": { "a": 0, "k": [ 1, 1, 1, 1 ], "ix": 3 },
							"o": { "a": 0, "k": 100, "ix": 4 },
							"w": { "a": 0, "k": 20, "ix": 5 },
							"lc": 1,
							"lj": 1,
							"ml": 10,
							"bm": 0,
							"nm": "Stroke 1",
							"mn": "ADBE Vector Graphic - Stroke",
							"hd": false
						},
						{
							"ty": "tr",
							"p": { "a": 0, "k": [ 0, 0 ], "ix": 2 },
							"a": { "a": 0, "k": [ 0, 0 ], "ix": 1 },
							"s": { "a": 0, "k": [ 100, 100 ], "ix": 3 },
							"r": { "a": 0, "k": 0.001, "ix": 6 },
							"o": { "a": 0, "k": 100, "ix": 7 },
							"sk": { "a": 0, "k": 0, "ix": 4 },
							"sa": { "a": 0, "k": 0, "ix": 5 },
							"nm": "Transform"
						}
					],
					"nm": "Group 1",
					"np": 2,
					"cix": 2,
					"bm": 0,
					"ix": 1,
					"mn": "ADBE Vector Group",
					"hd": false
				}
			],
			"ip": 431,
			"op": 551,
			"st": 333,
			"bm": 0
		},
		{
			"ddd": 0,
			"ind": 20,
			"ty": 4,
			"nm": "EYES",
			"parent": 1,
			"sr": 1,
			"ks": {
				"o": { "a": 0, "k": 100, "ix": 11 },
				"r": { "a": 0, "k": 0, "ix": 10 },
				"p": { "a": 0, "k": [ 3.384, -70.692, 0 ], "ix": 2 },
				"a": { "a": 0, "k": [ 414.116, 141.807, 0 ], "ix": 1 },
				"s": { "a": 0, "k": [ 100, 100, 100 ], "ix": 6 }
			},
			"ao": 0,
			"shapes": [
				{
					"ty": "tm",
					"s": {
						"a": 1,
						"k": [
							{
								"i": { "x": [ 0.833 ], "y": [ 0.833 ] },
								"o": { "x": [ 0.167 ], "y": [ 0.167 ] },
								"t": 443,
								"s": [ 0 ]
							},
							{ "t": 451, "s": [ 50 ] }
						],
						"ix": 1
					},
					"e": {
						"a": 1,
						"k": [
							{
								"i": { "x": [ 0.833 ], "y": [ 0.833 ] },
								"o": { "x": [ 0.167 ], "y": [ 0.167 ] },
								"t": 443,
								"s": [ 100 ]
							},
							{ "t": 451, "s": [ 50 ] }
						],
						"ix": 2
					},
					"o": { "a": 0, "k": 0, "ix": 3 },
					"m": 2,
					"ix": 7,
					"nm": "Trim Paths 1",
					"mn": "ADBE Vector Filter - Trim",
					"hd": false
				},
				{
					"ty": "gr",
					"it": [
						{
							"ind": 0,
							"ty": "sh",
							"ix": 1,
							"ks": {
								"a": 1,
								"k": [
									{
										"i": { "x": 0.833, "y": 1 },
										"o": { "x": 0.167, "y": 0 },
										"t": 448,
										"s": [
											{
												"i": [ [ 0, 0 ], [ 0, 0 ] ],
												"o": [ [ 0, 0 ], [ 0, 0 ] ],
												"v": [ [ 571.169, 72.141 ], [ 560.981, 72.141 ] ],
												"c": true
											}
										]
									},
									{
										"i": { "x": 0.833, "y": 1 },
										"o": { "x": 0.167, "y": 0 },
										"t": 452,
										"s": [
											{
												"i": [ [ 0, 0 ], [ 0, 0 ] ],
												"o": [ [ 0, 0 ], [ 0, 0 ] ],
												"v": [ [ 567.731, 101.5 ], [ 567.731, 132.5 ] ],
												"c": true
											}
										]
									},
									{
										"i": { "x": 0.833, "y": 0.939 },
										"o": { "x": 0.167, "y": 0 },
										"t": 459,
										"s": [
											{
												"i": [ [ 0, 0 ], [ 0, 0 ] ],
												"o": [ [ 0, 0 ], [ 0, 0 ] ],
												"v": [ [ 567.731, 101.5 ], [ 567.731, 132.5 ] ],
												"c": true
											}
										]
									},
									{
										"i": { "x": 0.833, "y": 0.939 },
										"o": { "x": 0.167, "y": 0.061 },
										"t": 460,
										"s": [
											{
												"i": [ [ 0, 0 ], [ 0, 0 ] ],
												"o": [ [ 0, 0 ], [ 0, 0 ] ],
												"v": [ [ 578.731, 117 ], [ 542.231, 131.999 ] ],
												"c": true
											}
										]
									},
									{
										"i": { "x": 0.833, "y": 1 },
										"o": { "x": 0.167, "y": 0.061 },
										"t": 466,
										"s": [
											{
												"i": [ [ 0, 0 ], [ 0, 0 ] ],
												"o": [ [ 0, 0 ], [ 0, 0 ] ],
												"v": [ [ 578.731, 117 ], [ 542.231, 131.999 ] ],
												"c": true
											}
										]
									},
									{
										"i": { "x": 0.833, "y": 1 },
										"o": { "x": 0.167, "y": 0 },
										"t": 467,
										"s": [
											{
												"i": [ [ 0, 0 ], [ 0, 0 ] ],
												"o": [ [ 0, 0 ], [ 0, 0 ] ],
												"v": [ [ 567.731, 101.5 ], [ 567.731, 132.5 ] ],
												"c": true
											}
										]
									},
									{
										"i": { "x": 0.833, "y": 1 },
										"o": { "x": 0.167, "y": 0 },
										"t": 496,
										"s": [
											{
												"i": [ [ 0, 0 ], [ 0, 0 ] ],
												"o": [ [ 0, 0 ], [ 0, 0 ] ],
												"v": [ [ 567.731, 101.5 ], [ 567.731, 132.5 ] ],
												"c": true
											}
										]
									},
									{
										"t": 501,
										"s": [
											{
												"i": [ [ 0, 0 ], [ 0, 0 ] ],
												"o": [ [ 0, 0 ], [ 0, 0 ] ],
												"v": [ [ 567.73, 131.5 ], [ 567.731, 132.5 ] ],
												"c": true
											}
										]
									}
								],
								"ix": 2
							},
							"nm": "Path 1",
							"mn": "ADBE Vector Shape - Group",
							"hd": false
						},
						{
							"ty": "st",
							"c": { "a": 0, "k": [ 0, 0.623529411765, 0.839215686275, 1 ], "ix": 3 },
							"o": { "a": 0, "k": 100, "ix": 4 },
							"w": { "a": 0, "k": 10, "ix": 5 },
							"lc": 2,
							"lj": 2,
							"bm": 0,
							"nm": "Stroke 1",
							"mn": "ADBE Vector Graphic - Stroke",
							"hd": false
						},
						{
							"ty": "fl",
							"c": { "a": 0, "k": [ 0.149019996793, 0.141176006841, 0.219607992733, 1 ], "ix": 4 },
							"o": { "a": 0, "k": 100, "ix": 5 },
							"r": 1,
							"bm": 0,
							"nm": "Fill 1",
							"mn": "ADBE Vector Graphic - Fill",
							"hd": false
						},
						{
							"ty": "tr",
							"p": { "a": 0, "k": [ 0, 0 ], "ix": 2 },
							"a": { "a": 0, "k": [ 0, 0 ], "ix": 1 },
							"s": { "a": 0, "k": [ 100, 100 ], "ix": 3 },
							"r": { "a": 0, "k": -0.002, "ix": 6 },
							"o": {
								"a": 1,
								"k": [
									{
										"i": { "x": [ 0.833 ], "y": [ 0.833 ] },
										"o": { "x": [ 0.167 ], "y": [ 0.167 ] },
										"t": 445,
										"s": [ 0 ]
									},
									{
										"i": { "x": [ 0.667 ], "y": [ 1 ] },
										"o": { "x": [ 0.167 ], "y": [ 0 ] },
										"t": 446,
										"s": [ 100 ]
									},
									{
										"i": { "x": [ 0.667 ], "y": [ 1 ] },
										"o": { "x": [ 0.333 ], "y": [ 0 ] },
										"t": 498,
										"s": [ 100 ]
									},
									{ "t": 501, "s": [ 0 ] }
								],
								"ix": 7
							},
							"sk": { "a": 0, "k": 0, "ix": 4 },
							"sa": { "a": 0, "k": 0, "ix": 5 },
							"nm": "Transform"
						}
					],
					"nm": "Shape 2",
					"np": 3,
					"cix": 2,
					"bm": 0,
					"ix": 8,
					"mn": "ADBE Vector Group",
					"hd": false
				},
				{
					"ty": "gr",
					"it": [
						{
							"ind": 0,
							"ty": "sh",
							"ix": 1,
							"ks": {
								"a": 1,
								"k": [
									{
										"i": { "x": 0.833, "y": 1 },
										"o": { "x": 0.167, "y": 0 },
										"t": 446,
										"s": [
											{
												"i": [ [ 0, 0 ], [ 0, 0 ] ],
												"o": [ [ 0, 0 ], [ 0, 0 ] ],
												"v": [ [ 244.981, 72.125 ], [ 256.856, 72.125 ] ],
												"c": false
											}
										]
									},
									{
										"i": { "x": 0.833, "y": 1 },
										"o": { "x": 0.167, "y": 0 },
										"t": 450,
										"s": [
											{
												"i": [ [ 0, 0 ], [ 0, 0 ] ],
												"o": [ [ 0, 0 ], [ 0, 0 ] ],
												"v": [ [ 250.231, 132.5 ], [ 250.231, 101.5 ] ],
												"c": false
											}
										]
									},
									{
										"i": { "x": 0.833, "y": 1 },
										"o": { "x": 0.167, "y": 0 },
										"t": 496,
										"s": [
											{
												"i": [ [ 0, 0 ], [ 0, 0 ] ],
												"o": [ [ 0, 0 ], [ 0, 0 ] ],
												"v": [ [ 250.231, 132.5 ], [ 250.231, 101.5 ] ],
												"c": false
											}
										]
									},
									{
										"t": 501,
										"s": [
											{
												"i": [ [ 0, 0 ], [ 0, 0 ] ],
												"o": [ [ 0, 0 ], [ 0, 0 ] ],
												"v": [ [ 250.231, 132.5 ], [ 250.231, 131.5 ] ],
												"c": false
											}
										]
									}
								],
								"ix": 2
							},
							"nm": "Path 1",
							"mn": "ADBE Vector Shape - Group",
							"hd": false
						},
						{
							"ty": "st",
							"c": { "a": 0, "k": [ 0, 0.623529411765, 0.839215686275, 1 ], "ix": 3 },
							"o": { "a": 0, "k": 100, "ix": 4 },
							"w": { "a": 0, "k": 10, "ix": 5 },
							"lc": 2,
							"lj": 1,
							"ml": 4,
							"bm": 0,
							"nm": "Stroke 1",
							"mn": "ADBE Vector Graphic - Stroke",
							"hd": false
						},
						{
							"ty": "fl",
							"c": { "a": 0, "k": [ 0.149019996793, 0.141176006841, 0.219607992733, 1 ], "ix": 4 },
							"o": { "a": 0, "k": 100, "ix": 5 },
							"r": 1,
							"bm": 0,
							"nm": "Fill 1",
							"mn": "ADBE Vector Graphic - Fill",
							"hd": false
						},
						{
							"ty": "tr",
							"p": { "a": 0, "k": [ 0, 0 ], "ix": 2 },
							"a": { "a": 0, "k": [ 0, 0 ], "ix": 1 },
							"s": { "a": 0, "k": [ 100, 100 ], "ix": 3 },
							"r": { "a": 0, "k": 0, "ix": 6 },
							"o": {
								"a": 1,
								"k": [
									{
										"i": { "x": [ 0.833 ], "y": [ 0.833 ] },
										"o": { "x": [ 0.167 ], "y": [ 0.167 ] },
										"t": 445,
										"s": [ 0 ]
									},
									{
										"i": { "x": [ 0.667 ], "y": [ 1 ] },
										"o": { "x": [ 0.167 ], "y": [ 0 ] },
										"t": 446,
										"s": [ 100 ]
									},
									{
										"i": { "x": [ 0.667 ], "y": [ 1 ] },
										"o": { "x": [ 0.333 ], "y": [ 0 ] },
										"t": 498,
										"s": [ 100 ]
									},
									{ "t": 501, "s": [ 0 ] }
								],
								"ix": 7
							},
							"sk": { "a": 0, "k": 0, "ix": 4 },
							"sa": { "a": 0, "k": 0, "ix": 5 },
							"nm": "Transform"
						}
					],
					"nm": "Shape 1",
					"np": 3,
					"cix": 2,
					"bm": 0,
					"ix": 9,
					"mn": "ADBE Vector Group",
					"hd": false
				}
			],
			"ip": 431,
			"op": 551,
			"st": 333,
			"bm": 0
		},
		{
			"ddd": 0,
			"ind": 22,
			"ty": 4,
			"nm": "lever Outlines 7",
			"parent": 14,
			"sr": 1,
			"ks": {
				"o": { "a": 0, "k": 100, "ix": 11 },
				"r": { "a": 0, "k": 0, "ix": 10 },
				"p": {
					"a": 1,
					"k": [
						{
							"i": { "x": 0.048, "y": 1 },
							"o": { "x": 0.333, "y": 0 },
							"t": 107,
							"s": [ 107, 0, 0 ],
							"to": [ -18.167, 0, 0 ],
							"ti": [ 18.167, 0, 0 ]
						},
						{ "t": 125, "s": [ -2, 0, 0 ] }
					],
					"ix": 2
				},
				"a": { "a": 0, "k": [ 423, 10, 0 ], "ix": 1 },
				"s": { "a": 0, "k": [ 100, 100, 100 ], "ix": 6 }
			},
			"ao": 0,
			"shapes": [
				{
					"ty": "gr",
					"it": [
						{
							"ind": 0,
							"ty": "sh",
							"ix": 1,
							"ks": {
								"a": 0,
								"k": {
									"i": [ [ 0, 0 ], [ 0, 0 ] ],
									"o": [ [ 0, 0 ], [ 0, 0 ] ],
									"v": [ [ 10, 10 ], [ 836, 10 ] ],
									"c": false
								},
								"ix": 2
							},
							"nm": "Path 1",
							"mn": "ADBE Vector Shape - Group",
							"hd": false
						},
						{
							"ty": "st",
							"c": { "a": 0, "k": [ 1, 1, 1, 1 ], "ix": 3 },
							"o": { "a": 0, "k": 100, "ix": 4 },
							"w": { "a": 0, "k": 20, "ix": 5 },
							"lc": 1,
							"lj": 1,
							"ml": 10,
							"bm": 0,
							"nm": "Stroke 1",
							"mn": "ADBE Vector Graphic - Stroke",
							"hd": false
						},
						{
							"ty": "tr",
							"p": { "a": 0, "k": [ 0, 0 ], "ix": 2 },
							"a": { "a": 0, "k": [ 0, 0 ], "ix": 1 },
							"s": { "a": 0, "k": [ 100, 100 ], "ix": 3 },
							"r": { "a": 0, "k": 0, "ix": 6 },
							"o": { "a": 0, "k": 100, "ix": 7 },
							"sk": { "a": 0, "k": 0, "ix": 4 },
							"sa": { "a": 0, "k": 0, "ix": 5 },
							"nm": "Transform"
						}
					],
					"nm": "Group 1",
					"np": 2,
					"cix": 2,
					"bm": 0,
					"ix": 1,
					"mn": "ADBE Vector Group",
					"hd": false
				},
				{
					"ty": "tm",
					"s": {
						"a": 1,
						"k": [
							{
								"i": { "x": [ 0.012 ], "y": [ 1.127 ] },
								"o": { "x": [ 0.36 ], "y": [ 0 ] },
								"t": 139,
								"s": [ 0 ]
							},
							{ "t": 148.955, "s": [ 0 ], "h": 1 },
							{
								"i": { "x": [ 0.554 ], "y": [ 1 ] },
								"o": { "x": [ 0.234 ], "y": [ -1.065 ] },
								"t": 172,
								"s": [ 0 ]
							},
							{ "t": 181.955078125, "s": [ 0 ] }
						],
						"ix": 1
					},
					"e": {
						"a": 1,
						"k": [
							{
								"i": { "x": [ 0.147 ], "y": [ 1 ] },
								"o": { "x": [ 0.488 ], "y": [ 0 ] },
								"t": 139,
								"s": [ 75 ]
							},
							{ "t": 149, "s": [ 88 ], "h": 1 },
							{
								"i": { "x": [ 0.554 ], "y": [ 1 ] },
								"o": { "x": [ 0.234 ], "y": [ 0.089 ] },
								"t": 172,
								"s": [ 88 ]
							},
							{ "t": 181.955078125, "s": [ 100 ] }
						],
						"ix": 2
					},
					"o": { "a": 0, "k": 0, "ix": 3 },
					"m": 1,
					"ix": 2,
					"nm": "Trim Paths 1",
					"mn": "ADBE Vector Filter - Trim",
					"hd": false
				}
			],
			"ip": 198,
			"op": 431,
			"st": 0,
			"bm": 0
		},
		{
			"ddd": 0,
			"ind": 23,
			"ty": 4,
			"nm": "lever Outlines",
			"parent": 28,
			"sr": 1,
			"ks": {
				"o": { "a": 0, "k": 100, "ix": 11 },
				"r": { "a": 0, "k": 0, "ix": 10 },
				"p": {
					"a": 1,
					"k": [
						{
							"i": { "x": 0.048, "y": 1 },
							"o": { "x": 0.333, "y": 0 },
							"t": 107,
							"s": [ 193.463, 0.789, 0 ],
							"to": [ -18.167, 0, 0 ],
							"ti": [ 18.167, 0, 0 ]
						},
						{ "t": 125, "s": [ 84.463, 0.789, 0 ] }
					],
					"ix": 2
				},
				"a": { "a": 0, "k": [ 423, 10, 0 ], "ix": 1 },
				"s": { "a": 0, "k": [ 100, 100, 100 ], "ix": 6 }
			},
			"ao": 0,
			"shapes": [
				{
					"ty": "gr",
					"it": [
						{
							"ind": 0,
							"ty": "sh",
							"ix": 1,
							"ks": {
								"a": 0,
								"k": {
									"i": [ [ 0, 0 ], [ 0, 0 ] ],
									"o": [ [ 0, 0 ], [ 0, 0 ] ],
									"v": [ [ 10, 10 ], [ 836, 10 ] ],
									"c": false
								},
								"ix": 2
							},
							"nm": "Path 1",
							"mn": "ADBE Vector Shape - Group",
							"hd": false
						},
						{
							"ty": "st",
							"c": { "a": 0, "k": [ 1, 1, 1, 1 ], "ix": 3 },
							"o": { "a": 0, "k": 100, "ix": 4 },
							"w": { "a": 0, "k": 20, "ix": 5 },
							"lc": 1,
							"lj": 1,
							"ml": 10,
							"bm": 0,
							"nm": "Stroke 1",
							"mn": "ADBE Vector Graphic - Stroke",
							"hd": false
						},
						{
							"ty": "tr",
							"p": { "a": 0, "k": [ 0, 0 ], "ix": 2 },
							"a": { "a": 0, "k": [ 0, 0 ], "ix": 1 },
							"s": { "a": 0, "k": [ 100, 100 ], "ix": 3 },
							"r": { "a": 0, "k": 0, "ix": 6 },
							"o": { "a": 0, "k": 100, "ix": 7 },
							"sk": { "a": 0, "k": 0, "ix": 4 },
							"sa": { "a": 0, "k": 0, "ix": 5 },
							"nm": "Transform"
						}
					],
					"nm": "Group 1",
					"np": 2,
					"cix": 2,
					"bm": 0,
					"ix": 1,
					"mn": "ADBE Vector Group",
					"hd": false
				},
				{
					"ty": "tm",
					"s": {
						"a": 1,
						"k": [
							{
								"i": { "x": [ 0.012 ], "y": [ 1.127 ] },
								"o": { "x": [ 0.36 ], "y": [ 0 ] },
								"t": 139,
								"s": [ 0 ]
							},
							{ "t": 148.955, "s": [ 0 ], "h": 1 },
							{
								"i": { "x": [ 0.554 ], "y": [ 1 ] },
								"o": { "x": [ 0.234 ], "y": [ -1.065 ] },
								"t": 172,
								"s": [ 0 ]
							},
							{ "t": 181.955078125, "s": [ 0 ] }
						],
						"ix": 1
					},
					"e": {
						"a": 1,
						"k": [
							{
								"i": { "x": [ 0.147 ], "y": [ 1 ] },
								"o": { "x": [ 0.488 ], "y": [ 0 ] },
								"t": 139,
								"s": [ 75 ]
							},
							{ "t": 149, "s": [ 88 ], "h": 1 },
							{
								"i": { "x": [ 0.554 ], "y": [ 1 ] },
								"o": { "x": [ 0.234 ], "y": [ 0.089 ] },
								"t": 172,
								"s": [ 88 ]
							},
							{ "t": 181.955078125, "s": [ 100 ] }
						],
						"ix": 2
					},
					"o": { "a": 0, "k": 0, "ix": 3 },
					"m": 1,
					"ix": 2,
					"nm": "Trim Paths 1",
					"mn": "ADBE Vector Filter - Trim",
					"hd": false
				}
			],
			"ip": 0,
			"op": 198,
			"st": 0,
			"bm": 0
		},
		{
			"ddd": 0,
			"ind": 25,
			"ty": 4,
			"nm": "base Outlines 5",
			"sr": 1,
			"ks": {
				"o": { "a": 0, "k": 100, "ix": 11 },
				"r": {
					"a": 1,
					"k": [
						{
							"i": { "x": [ 0.313 ], "y": [ 1 ] },
							"o": { "x": [ 0.333 ], "y": [ 0 ] },
							"t": 459,
							"s": [ 0 ]
						},
						{
							"i": { "x": [ 0.667 ], "y": [ 1 ] },
							"o": { "x": [ 0.333 ], "y": [ 0 ] },
							"t": 462,
							"s": [ 5 ]
						},
						{
							"i": { "x": [ 0.667 ], "y": [ 1 ] },
							"o": { "x": [ 0.796 ], "y": [ 0 ] },
							"t": 465,
							"s": [ 5 ]
						},
						{ "t": 468, "s": [ 0 ] }
					],
					"ix": 10
				},
				"p": {
					"a": 1,
					"k": [
						{
							"i": { "x": 0.048, "y": 1 },
							"o": { "x": 0.333, "y": 0 },
							"t": 107,
							"s": [ 560, 628.977, 0 ],
							"to": [ -19.333, 0, 0 ],
							"ti": [ 19.333, 0, 0 ]
						},
						{
							"i": { "x": 0.667, "y": 0.667 },
							"o": { "x": 0.167, "y": 0.167 },
							"t": 125,
							"s": [ 444, 628.977, 0 ],
							"to": [ 0, 0, 0 ],
							"ti": [ 0, 0, 0 ]
						},
						{
							"i": { "x": 0.193, "y": 1 },
							"o": { "x": 0.333, "y": 0 },
							"t": 405,
							"s": [ 444, 628.977, 0 ],
							"to": [ 19.333, 0, 0 ],
							"ti": [ -19.333, 0, 0 ]
						},
						{
							"i": { "x": 0.193, "y": 0.193 },
							"o": { "x": 0.167, "y": 0.167 },
							"t": 416,
							"s": [ 560, 628.977, 0 ],
							"to": [ 0, 0, 0 ],
							"ti": [ 0, 0, 0 ]
						},
						{
							"i": { "x": 0.193, "y": 1 },
							"o": { "x": 0.167, "y": 0 },
							"t": 459,
							"s": [ 560, 628.977, 0 ],
							"to": [ -1.5, -0.917, 0 ],
							"ti": [ 1.5, 0.917, 0 ]
						},
						{
							"i": { "x": 0.193, "y": 0.193 },
							"o": { "x": 0.167, "y": 0.167 },
							"t": 462,
							"s": [ 551, 623.477, 0 ],
							"to": [ 0, 0, 0 ],
							"ti": [ 0, 0, 0 ]
						},
						{
							"i": { "x": 0.193, "y": 1 },
							"o": { "x": 0.167, "y": 0 },
							"t": 465,
							"s": [ 551, 623.477, 0 ],
							"to": [ 1.5, 0.917, 0 ],
							"ti": [ -1.5, -0.917, 0 ]
						},
						{ "t": 468, "s": [ 560, 628.977, 0 ] }
					],
					"ix": 2
				},
				"a": { "a": 0, "k": [ 86.463, 69.766, 0 ], "ix": 1 },
				"s": {
					"a": 1,
					"k": [
						{
							"i": { "x": [ 0.833, 0.833, 0.833 ], "y": [ 1, 1, 1 ] },
							"o": { "x": [ 0.167, 0.167, 0.167 ], "y": [ 0, 0, 0 ] },
							"t": 0,
							"s": [ 215, 215, 100 ]
						},
						{
							"i": { "x": [ 0.239, 0.239, 0.667 ], "y": [ 1, 1, 1 ] },
							"o": { "x": [ 0.766, 0.766, 0.333 ], "y": [ 0, 0, 0 ] },
							"t": 10,
							"s": [ 207, 207, 100 ]
						},
						{ "t": 36, "s": [ 100, 100, 100 ] }
					],
					"ix": 6
				}
			},
			"ao": 0,
			"shapes": [
				{
					"ty": "gr",
					"it": [
						{
							"ind": 0,
							"ty": "sh",
							"ix": 1,
							"ks": {
								"a": 0,
								"k": {
									"i": [
										[ 0.007, -0.01 ],
										[ 0, 0 ],
										[ -0.029, 0 ],
										[ 0, 0 ],
										[ 0.017, 0.023 ],
										[ 0, 0 ],
										[ 0.01, 0 ]
									],
									"o": [
										[ 0, 0 ],
										[ -0.017, 0.023 ],
										[ 0, 0 ],
										[ 0.029, 0 ],
										[ 0, 0 ],
										[ -0.007, -0.01 ],
										[ -0.011, 0 ]
									],
									"v": [
										[ -0.07, 10.101 ],
										[ -86.196, 138.437 ],
										[ -86.168, 138.493 ],
										[ 86.168, 138.493 ],
										[ 86.196, 138.437 ],
										[ -0.014, 10.101 ],
										[ -0.042, 10.086 ]
									],
									"c": true
								},
								"ix": 2
							},
							"nm": "Path 2",
							"mn": "ADBE Vector Shape - Group",
							"hd": false
						},
						{
							"ty": "gf",
							"o": { "a": 0, "k": 100, "ix": 10 },
							"r": 1,
							"bm": 0,
							"g": {
								"p": 3,
								"k": {
									"a": 0,
									"k": [ 0, 0.355, 0.299, 0.355, 0.378, 0.678, 0.602, 0.491, 1, 1, 0.906, 0.627 ],
									"ix": 9
								}
							},
							"s": { "a": 0, "k": [ -0.301, 142.432 ], "ix": 5 },
							"e": { "a": 0, "k": [ 1, 90.5 ], "ix": 6 },
							"t": 1,
							"nm": "Gradient Fill 1",
							"mn": "ADBE Vector Graphic - G-Fill",
							"hd": false
						},
						{
							"ty": "tr",
							"p": { "a": 0, "k": [ 86.463, 0.789 ], "ix": 2 },
							"a": { "a": 0, "k": [ 0, 0 ], "ix": 1 },
							"s": { "a": 0, "k": [ 100, 100 ], "ix": 3 },
							"r": { "a": 0, "k": 0, "ix": 6 },
							"o": { "a": 0, "k": 100, "ix": 7 },
							"sk": { "a": 0, "k": 0, "ix": 4 },
							"sa": { "a": 0, "k": 0, "ix": 5 },
							"nm": "Transform"
						}
					],
					"nm": "Group 1",
					"np": 2,
					"cix": 2,
					"bm": 0,
					"ix": 1,
					"mn": "ADBE Vector Group",
					"hd": false
				}
			],
			"ip": 431,
			"op": 551,
			"st": 0,
			"bm": 0
		},
		{
			"ddd": 0,
			"ind": 26,
			"ty": 4,
			"nm": "ground Outlines",
			"parent": 28,
			"sr": 1,
			"ks": {
				"o": { "a": 0, "k": 100, "ix": 11 },
				"r": { "a": 0, "k": 0, "ix": 10 },
				"p": { "a": 0, "k": [ 86.463, 139.282, 0 ], "ix": 2 },
				"a": { "a": 0, "k": [ 455.423, 2.5, 0 ], "ix": 1 },
				"s": { "a": 0, "k": [ 100, 100, 100 ], "ix": 6 }
			},
			"ao": 0,
			"shapes": [
				{
					"ty": "gr",
					"it": [
						{
							"ind": 0,
							"ty": "sh",
							"ix": 1,
							"ks": {
								"a": 0,
								"k": {
									"i": [ [ 0, 0 ], [ 0, 0 ] ],
									"o": [ [ 0, 0 ], [ 0, 0 ] ],
									"v": [ [ 2.5, 2.5 ], [ 908.346, 2.5 ] ],
									"c": false
								},
								"ix": 2
							},
							"nm": "Path 1",
							"mn": "ADBE Vector Shape - Group",
							"hd": false
						},
						{
							"ty": "st",
							"c": { "a": 0, "k": [ 0, 0.62400004069, 0.838999968884, 1 ], "ix": 3 },
							"o": { "a": 0, "k": 100, "ix": 4 },
							"w": { "a": 0, "k": 5, "ix": 5 },
							"lc": 2,
							"lj": 1,
							"ml": 10,
							"bm": 0,
							"nm": "Stroke 1",
							"mn": "ADBE Vector Graphic - Stroke",
							"hd": false
						},
						{
							"ty": "tr",
							"p": { "a": 0, "k": [ 0, 0 ], "ix": 2 },
							"a": { "a": 0, "k": [ 0, 0 ], "ix": 1 },
							"s": { "a": 0, "k": [ 100, 100 ], "ix": 3 },
							"r": { "a": 0, "k": 0, "ix": 6 },
							"o": { "a": 0, "k": 100, "ix": 7 },
							"sk": { "a": 0, "k": 0, "ix": 4 },
							"sa": { "a": 0, "k": 0, "ix": 5 },
							"nm": "Transform"
						}
					],
					"nm": "Group 1",
					"np": 2,
					"cix": 2,
					"bm": 0,
					"ix": 1,
					"mn": "ADBE Vector Group",
					"hd": false
				},
				{
					"ty": "tm",
					"s": {
						"a": 1,
						"k": [
							{
								"i": { "x": [ 0.667 ], "y": [ 1 ] },
								"o": { "x": [ 0.333 ], "y": [ 0 ] },
								"t": 25,
								"s": [ 0 ]
							},
							{ "t": 38, "s": [ 100 ] }
						],
						"ix": 1
					},
					"e": { "a": 0, "k": 0, "ix": 2 },
					"o": { "a": 0, "k": 0, "ix": 3 },
					"m": 1,
					"ix": 2,
					"nm": "Trim Paths 1",
					"mn": "ADBE Vector Filter - Trim",
					"hd": false
				}
			],
			"ip": 0,
			"op": 431,
			"st": 0,
			"bm": 0
		},
		{
			"ddd": 0,
			"ind": 27,
			"ty": 4,
			"nm": "base Outlines 4",
			"sr": 1,
			"ks": {
				"o": { "a": 0, "k": 100, "ix": 11 },
				"r": { "a": 0, "k": 0, "ix": 10 },
				"p": {
					"a": 1,
					"k": [
						{
							"i": { "x": 0.048, "y": 1 },
							"o": { "x": 0.333, "y": 0 },
							"t": 107,
							"s": [ 560, 628.977, 0 ],
							"to": [ -19.333, 0, 0 ],
							"ti": [ 19.333, 0, 0 ]
						},
						{
							"i": { "x": 0.667, "y": 0.667 },
							"o": { "x": 0.167, "y": 0.167 },
							"t": 125,
							"s": [ 444, 628.977, 0 ],
							"to": [ 0, 0, 0 ],
							"ti": [ 0, 0, 0 ]
						},
						{
							"i": { "x": 0.193, "y": 1 },
							"o": { "x": 0.333, "y": 0 },
							"t": 405,
							"s": [ 444, 628.977, 0 ],
							"to": [ 19.333, 0, 0 ],
							"ti": [ -19.333, 0, 0 ]
						},
						{ "t": 416, "s": [ 560, 628.977, 0 ] }
					],
					"ix": 2
				},
				"a": { "a": 0, "k": [ 86.463, 69.766, 0 ], "ix": 1 },
				"s": {
					"a": 1,
					"k": [
						{
							"i": { "x": [ 0.833, 0.833, 0.833 ], "y": [ 1, 1, 1 ] },
							"o": { "x": [ 0.167, 0.167, 0.167 ], "y": [ 0, 0, 0 ] },
							"t": 0,
							"s": [ 215, 215, 100 ]
						},
						{
							"i": { "x": [ 0.239, 0.239, 0.667 ], "y": [ 1, 1, 1 ] },
							"o": { "x": [ 0.766, 0.766, 0.333 ], "y": [ 0, 0, 0 ] },
							"t": 10,
							"s": [ 207, 207, 100 ]
						},
						{ "t": 36, "s": [ 100, 100, 100 ] }
					],
					"ix": 6
				}
			},
			"ao": 0,
			"shapes": [
				{
					"ty": "gr",
					"it": [
						{
							"ind": 0,
							"ty": "sh",
							"ix": 1,
							"ks": {
								"a": 0,
								"k": {
									"i": [
										[ 0.007, -0.01 ],
										[ 0, 0 ],
										[ -0.029, 0 ],
										[ 0, 0 ],
										[ 0.017, 0.023 ],
										[ 0, 0 ],
										[ 0.01, 0 ]
									],
									"o": [
										[ 0, 0 ],
										[ -0.017, 0.023 ],
										[ 0, 0 ],
										[ 0.029, 0 ],
										[ 0, 0 ],
										[ -0.007, -0.01 ],
										[ -0.011, 0 ]
									],
									"v": [
										[ -0.07, 10.101 ],
										[ -86.196, 138.437 ],
										[ -86.168, 138.493 ],
										[ 86.168, 138.493 ],
										[ 86.196, 138.437 ],
										[ -0.014, 10.101 ],
										[ -0.042, 10.086 ]
									],
									"c": true
								},
								"ix": 2
							},
							"nm": "Path 2",
							"mn": "ADBE Vector Shape - Group",
							"hd": false
						},
						{
							"ty": "gf",
							"o": { "a": 0, "k": 100, "ix": 10 },
							"r": 1,
							"bm": 0,
							"g": {
								"p": 3,
								"k": {
									"a": 0,
									"k": [ 0, 0.355, 0.299, 0.355, 0.378, 0.678, 0.602, 0.491, 1, 1, 0.906, 0.627 ],
									"ix": 9
								}
							},
							"s": { "a": 0, "k": [ -0.301, 142.432 ], "ix": 5 },
							"e": { "a": 0, "k": [ 1, 90.5 ], "ix": 6 },
							"t": 1,
							"nm": "Gradient Fill 1",
							"mn": "ADBE Vector Graphic - G-Fill",
							"hd": false
						},
						{
							"ty": "tr",
							"p": { "a": 0, "k": [ 86.463, 0.789 ], "ix": 2 },
							"a": { "a": 0, "k": [ 0, 0 ], "ix": 1 },
							"s": { "a": 0, "k": [ 100, 100 ], "ix": 3 },
							"r": { "a": 0, "k": 0, "ix": 6 },
							"o": { "a": 0, "k": 100, "ix": 7 },
							"sk": { "a": 0, "k": 0, "ix": 4 },
							"sa": { "a": 0, "k": 0, "ix": 5 },
							"nm": "Transform"
						}
					],
					"nm": "Group 1",
					"np": 2,
					"cix": 2,
					"bm": 0,
					"ix": 1,
					"mn": "ADBE Vector Group",
					"hd": false
				}
			],
			"ip": 83,
			"op": 431,
			"st": 0,
			"bm": 0
		},
		{
			"ddd": 0,
			"ind": 28,
			"ty": 4,
			"nm": "base Outlines 6",
			"sr": 1,
			"ks": {
				"o": { "a": 0, "k": 100, "ix": 11 },
				"r": { "a": 0, "k": 0, "ix": 10 },
				"p": { "a": 0, "k": [ 560, 628.977, 0 ], "ix": 2 },
				"a": { "a": 0, "k": [ 86.463, 69.766, 0 ], "ix": 1 },
				"s": {
					"a": 1,
					"k": [
						{
							"i": { "x": [ 0.833, 0.833, 0.833 ], "y": [ 1, 1, 1 ] },
							"o": { "x": [ 0.167, 0.167, 0.167 ], "y": [ 0, 0, 0 ] },
							"t": 0,
							"s": [ 215, 215, 100 ]
						},
						{
							"i": { "x": [ 0.239, 0.239, 0.667 ], "y": [ 1, 1, 1 ] },
							"o": { "x": [ 0.766, 0.766, 0.333 ], "y": [ 0, 0, 0 ] },
							"t": 10,
							"s": [ 207, 207, 100 ]
						},
						{ "t": 36, "s": [ 100, 100, 100 ] }
					],
					"ix": 6
				}
			},
			"ao": 0,
			"shapes": [
				{
					"ty": "gr",
					"it": [
						{
							"ind": 0,
							"ty": "sh",
							"ix": 1,
							"ks": {
								"a": 0,
								"k": {
									"i": [
										[ 0.007, -0.01 ],
										[ 0, 0 ],
										[ -0.029, 0 ],
										[ 0, 0 ],
										[ 0.017, 0.023 ],
										[ 0, 0 ],
										[ 0.01, 0 ]
									],
									"o": [
										[ 0, 0 ],
										[ -0.017, 0.023 ],
										[ 0, 0 ],
										[ 0.029, 0 ],
										[ 0, 0 ],
										[ -0.007, -0.01 ],
										[ -0.011, 0 ]
									],
									"v": [
										[ -0.07, 10.101 ],
										[ -86.196, 138.437 ],
										[ -86.168, 138.493 ],
										[ 86.168, 138.493 ],
										[ 86.196, 138.437 ],
										[ -0.014, 10.101 ],
										[ -0.042, 10.086 ]
									],
									"c": true
								},
								"ix": 2
							},
							"nm": "Path 2",
							"mn": "ADBE Vector Shape - Group",
							"hd": false
						},
						{
							"ty": "gf",
							"o": { "a": 0, "k": 100, "ix": 10 },
							"r": 1,
							"bm": 0,
							"g": {
								"p": 3,
								"k": {
									"a": 0,
									"k": [ 0, 0.355, 0.299, 0.355, 0.378, 0.678, 0.602, 0.491, 1, 1, 0.906, 0.627 ],
									"ix": 9
								}
							},
							"s": { "a": 0, "k": [ -0.301, 142.432 ], "ix": 5 },
							"e": { "a": 0, "k": [ 1, 90.5 ], "ix": 6 },
							"t": 1,
							"nm": "Gradient Fill 1",
							"mn": "ADBE Vector Graphic - G-Fill",
							"hd": false
						},
						{
							"ty": "tr",
							"p": { "a": 0, "k": [ 86.463, 0.789 ], "ix": 2 },
							"a": { "a": 0, "k": [ 0, 0 ], "ix": 1 },
							"s": { "a": 0, "k": [ 100, 100 ], "ix": 3 },
							"r": { "a": 0, "k": 0, "ix": 6 },
							"o": { "a": 0, "k": 100, "ix": 7 },
							"sk": { "a": 0, "k": 0, "ix": 4 },
							"sa": { "a": 0, "k": 0, "ix": 5 },
							"nm": "Transform"
						}
					],
					"nm": "Group 1",
					"np": 2,
					"cix": 2,
					"bm": 0,
					"ix": 1,
					"mn": "ADBE Vector Group",
					"hd": false
				}
			],
			"ip": 0,
			"op": 83,
			"st": 0,
			"bm": 0
		},
		{
			"ddd": 0,
			"ind": 29,
			"ty": 4,
			"nm": "dash Outlines",
			"parent": 28,
			"sr": 1,
			"ks": {
				"o": {
					"a": 1,
					"k": [
						{
							"i": { "x": [ 0.833 ], "y": [ 0.833 ] },
							"o": { "x": [ 0.167 ], "y": [ 0.167 ] },
							"t": 440,
							"s": [ 100 ]
						},
						{ "t": 446, "s": [ 0 ] }
					],
					"ix": 11
				},
				"r": { "a": 0, "k": 0, "ix": 10 },
				"p": { "a": 0, "k": [ 89.848, -82.903, 0 ], "ix": 2 },
				"a": { "a": 0, "k": [ 414.116, 141.807, 0 ], "ix": 1 },
				"s": { "a": 0, "k": [ 107, 107, 100 ], "ix": 6 }
			},
			"ao": 0,
			"shapes": [
				{
					"ty": "gr",
					"it": [
						{
							"ind": 0,
							"ty": "sh",
							"ix": 1,
							"ks": {
								"a": 0,
								"k": {
									"i": [ [ 0, 0 ], [ 0, 0 ] ],
									"o": [ [ 0, 0 ], [ 0, 0 ] ],
									"v": [ [ 1.5, 282.115 ], [ 826.731, 282.115 ] ],
									"c": false
								},
								"ix": 2
							},
							"nm": "Path 1",
							"mn": "ADBE Vector Shape - Group",
							"hd": false
						},
						{
							"ty": "st",
							"c": { "a": 0, "k": [ 1, 1, 1, 1 ], "ix": 3 },
							"o": { "a": 0, "k": 100, "ix": 4 },
							"w": { "a": 0, "k": 3, "ix": 5 },
							"lc": 2,
							"lj": 1,
							"ml": 10,
							"bm": 0,
							"d": [
								{ "n": "d", "nm": "dash", "v": { "a": 0, "k": 15, "ix": 1 } },
								{ "n": "g", "nm": "gap", "v": { "a": 0, "k": 20, "ix": 2 } },
								{ "n": "o", "nm": "offset", "v": { "a": 0, "k": 0, "ix": 7 } }
							],
							"nm": "Stroke 1",
							"mn": "ADBE Vector Graphic - Stroke",
							"hd": false
						},
						{
							"ty": "tm",
							"s": {
								"a": 1,
								"k": [
									{
										"i": { "x": [ 0.667 ], "y": [ 1 ] },
										"o": { "x": [ 0.333 ], "y": [ 0 ] },
										"t": 208,
										"s": [ 0 ]
									},
									{ "t": 212, "s": [ 100 ] }
								],
								"ix": 1
							},
							"e": { "a": 0, "k": 0, "ix": 2 },
							"o": { "a": 0, "k": 0, "ix": 3 },
							"m": 2,
							"ix": 3,
							"nm": "Trim Paths 5",
							"mn": "ADBE Vector Filter - Trim",
							"hd": false
						},
						{
							"ty": "tr",
							"p": { "a": 0, "k": [ 0, 0 ], "ix": 2 },
							"a": { "a": 0, "k": [ 0, 0 ], "ix": 1 },
							"s": { "a": 0, "k": [ 100, 100 ], "ix": 3 },
							"r": { "a": 0, "k": 0, "ix": 6 },
							"o": { "a": 0, "k": 50, "ix": 7 },
							"sk": { "a": 0, "k": 0, "ix": 4 },
							"sa": { "a": 0, "k": 0, "ix": 5 },
							"nm": "Transform"
						}
					],
					"nm": "Group 5",
					"np": 3,
					"cix": 2,
					"bm": 0,
					"ix": 1,
					"mn": "ADBE Vector Group",
					"hd": false
				},
				{
					"ty": "gr",
					"it": [
						{
							"ind": 0,
							"ty": "sh",
							"ix": 1,
							"ks": {
								"a": 0,
								"k": {
									"i": [ [ 0, 0 ], [ 0, 0 ] ],
									"o": [ [ 0, 0 ], [ 0, 0 ] ],
									"v": [ [ 1.5, 211.961 ], [ 826.731, 211.961 ] ],
									"c": false
								},
								"ix": 2
							},
							"nm": "Path 1",
							"mn": "ADBE Vector Shape - Group",
							"hd": false
						},
						{
							"ty": "st",
							"c": { "a": 0, "k": [ 1, 1, 1, 1 ], "ix": 3 },
							"o": { "a": 0, "k": 100, "ix": 4 },
							"w": { "a": 0, "k": 3, "ix": 5 },
							"lc": 2,
							"lj": 1,
							"ml": 10,
							"bm": 0,
							"d": [
								{ "n": "d", "nm": "dash", "v": { "a": 0, "k": 15, "ix": 1 } },
								{ "n": "g", "nm": "gap", "v": { "a": 0, "k": 20, "ix": 2 } },
								{ "n": "o", "nm": "offset", "v": { "a": 0, "k": 0, "ix": 7 } }
							],
							"nm": "Stroke 1",
							"mn": "ADBE Vector Graphic - Stroke",
							"hd": false
						},
						{
							"ty": "tm",
							"s": {
								"a": 1,
								"k": [
									{
										"i": { "x": [ 0.667 ], "y": [ 1 ] },
										"o": { "x": [ 0.333 ], "y": [ 0 ] },
										"t": 207,
										"s": [ 0 ]
									},
									{ "t": 211, "s": [ 100 ] }
								],
								"ix": 1
							},
							"e": { "a": 0, "k": 0, "ix": 2 },
							"o": { "a": 0, "k": 0, "ix": 3 },
							"m": 2,
							"ix": 3,
							"nm": "Trim Paths 4",
							"mn": "ADBE Vector Filter - Trim",
							"hd": false
						},
						{
							"ty": "tr",
							"p": { "a": 0, "k": [ 0, 0 ], "ix": 2 },
							"a": { "a": 0, "k": [ 0, 0 ], "ix": 1 },
							"s": { "a": 0, "k": [ 100, 100 ], "ix": 3 },
							"r": { "a": 0, "k": 0, "ix": 6 },
							"o": { "a": 0, "k": 50, "ix": 7 },
							"sk": { "a": 0, "k": 0, "ix": 4 },
							"sa": { "a": 0, "k": 0, "ix": 5 },
							"nm": "Transform"
						}
					],
					"nm": "Group 4",
					"np": 3,
					"cix": 2,
					"bm": 0,
					"ix": 2,
					"mn": "ADBE Vector Group",
					"hd": false
				},
				{
					"ty": "gr",
					"it": [
						{
							"ind": 0,
							"ty": "sh",
							"ix": 1,
							"ks": {
								"a": 0,
								"k": {
									"i": [ [ 0, 0 ], [ 0, 0 ] ],
									"o": [ [ 0, 0 ], [ 0, 0 ] ],
									"v": [ [ 1.5, 141.808 ], [ 826.731, 141.808 ] ],
									"c": false
								},
								"ix": 2
							},
							"nm": "Path 1",
							"mn": "ADBE Vector Shape - Group",
							"hd": false
						},
						{
							"ty": "st",
							"c": { "a": 0, "k": [ 1, 1, 1, 1 ], "ix": 3 },
							"o": { "a": 0, "k": 100, "ix": 4 },
							"w": { "a": 0, "k": 3, "ix": 5 },
							"lc": 2,
							"lj": 1,
							"ml": 10,
							"bm": 0,
							"d": [
								{ "n": "d", "nm": "dash", "v": { "a": 0, "k": 15, "ix": 1 } },
								{ "n": "g", "nm": "gap", "v": { "a": 0, "k": 20, "ix": 2 } },
								{ "n": "o", "nm": "offset", "v": { "a": 0, "k": 0, "ix": 7 } }
							],
							"nm": "Stroke 1",
							"mn": "ADBE Vector Graphic - Stroke",
							"hd": false
						},
						{
							"ty": "tm",
							"s": {
								"a": 1,
								"k": [
									{
										"i": { "x": [ 0.667 ], "y": [ 1 ] },
										"o": { "x": [ 0.333 ], "y": [ 0 ] },
										"t": 206,
										"s": [ 0 ]
									},
									{ "t": 210, "s": [ 100 ] }
								],
								"ix": 1
							},
							"e": { "a": 0, "k": 0, "ix": 2 },
							"o": { "a": 0, "k": 0, "ix": 3 },
							"m": 2,
							"ix": 3,
							"nm": "Trim Paths 3",
							"mn": "ADBE Vector Filter - Trim",
							"hd": false
						},
						{
							"ty": "tr",
							"p": { "a": 0, "k": [ 0, 0 ], "ix": 2 },
							"a": { "a": 0, "k": [ 0, 0 ], "ix": 1 },
							"s": { "a": 0, "k": [ 100, 100 ], "ix": 3 },
							"r": { "a": 0, "k": 0, "ix": 6 },
							"o": { "a": 0, "k": 50, "ix": 7 },
							"sk": { "a": 0, "k": 0, "ix": 4 },
							"sa": { "a": 0, "k": 0, "ix": 5 },
							"nm": "Transform"
						}
					],
					"nm": "Group 3",
					"np": 3,
					"cix": 2,
					"bm": 0,
					"ix": 3,
					"mn": "ADBE Vector Group",
					"hd": false
				},
				{
					"ty": "gr",
					"it": [
						{
							"ind": 0,
							"ty": "sh",
							"ix": 1,
							"ks": {
								"a": 0,
								"k": {
									"i": [ [ 0, 0 ], [ 0, 0 ] ],
									"o": [ [ 0, 0 ], [ 0, 0 ] ],
									"v": [ [ 1.5, 71.654 ], [ 826.731, 71.654 ] ],
									"c": false
								},
								"ix": 2
							},
							"nm": "Path 1",
							"mn": "ADBE Vector Shape - Group",
							"hd": false
						},
						{
							"ty": "st",
							"c": { "a": 0, "k": [ 1, 1, 1, 1 ], "ix": 3 },
							"o": { "a": 0, "k": 100, "ix": 4 },
							"w": { "a": 0, "k": 3, "ix": 5 },
							"lc": 2,
							"lj": 1,
							"ml": 10,
							"bm": 0,
							"d": [
								{ "n": "d", "nm": "dash", "v": { "a": 0, "k": 15, "ix": 1 } },
								{ "n": "g", "nm": "gap", "v": { "a": 0, "k": 20, "ix": 2 } },
								{ "n": "o", "nm": "offset", "v": { "a": 0, "k": 0, "ix": 7 } }
							],
							"nm": "Stroke 1",
							"mn": "ADBE Vector Graphic - Stroke",
							"hd": false
						},
						{
							"ty": "tm",
							"s": {
								"a": 1,
								"k": [
									{
										"i": { "x": [ 0.667 ], "y": [ 1 ] },
										"o": { "x": [ 0.333 ], "y": [ 0 ] },
										"t": 205,
										"s": [ 0 ]
									},
									{ "t": 209, "s": [ 100 ] }
								],
								"ix": 1
							},
							"e": { "a": 0, "k": 0, "ix": 2 },
							"o": { "a": 0, "k": 0, "ix": 3 },
							"m": 2,
							"ix": 3,
							"nm": "Trim Paths 2",
							"mn": "ADBE Vector Filter - Trim",
							"hd": false
						},
						{
							"ty": "tr",
							"p": { "a": 0, "k": [ 0, 0 ], "ix": 2 },
							"a": { "a": 0, "k": [ 0, 0 ], "ix": 1 },
							"s": { "a": 0, "k": [ 100, 100 ], "ix": 3 },
							"r": { "a": 0, "k": 0, "ix": 6 },
							"o": { "a": 0, "k": 50, "ix": 7 },
							"sk": { "a": 0, "k": 0, "ix": 4 },
							"sa": { "a": 0, "k": 0, "ix": 5 },
							"nm": "Transform"
						}
					],
					"nm": "Group 2",
					"np": 3,
					"cix": 2,
					"bm": 0,
					"ix": 4,
					"mn": "ADBE Vector Group",
					"hd": false
				},
				{
					"ty": "gr",
					"it": [
						{
							"ind": 0,
							"ty": "sh",
							"ix": 1,
							"ks": {
								"a": 0,
								"k": {
									"i": [ [ 0, 0 ], [ 0, 0 ] ],
									"o": [ [ 0, 0 ], [ 0, 0 ] ],
									"v": [ [ 1.5, 1.5 ], [ 826.731, 1.5 ] ],
									"c": false
								},
								"ix": 2
							},
							"nm": "Path 1",
							"mn": "ADBE Vector Shape - Group",
							"hd": false
						},
						{
							"ty": "st",
							"c": {
								"a": 1,
								"k": [
									{
										"i": { "x": [ 0.667 ], "y": [ 1 ] },
										"o": { "x": [ 0.333 ], "y": [ 0 ] },
										"t": 235,
										"s": [ 1, 1, 1, 1 ]
									},
									{ "t": 237, "s": [ 0, 0.623529411765, 0.839215686275, 1 ] }
								],
								"ix": 3
							},
							"o": { "a": 0, "k": 100, "ix": 4 },
							"w": { "a": 0, "k": 3, "ix": 5 },
							"lc": 2,
							"lj": 1,
							"ml": 10,
							"bm": 0,
							"d": [
								{ "n": "d", "nm": "dash", "v": { "a": 0, "k": 15, "ix": 1 } },
								{ "n": "g", "nm": "gap", "v": { "a": 0, "k": 20, "ix": 2 } },
								{ "n": "o", "nm": "offset", "v": { "a": 0, "k": 0, "ix": 7 } }
							],
							"nm": "Stroke 1",
							"mn": "ADBE Vector Graphic - Stroke",
							"hd": false
						},
						{
							"ty": "tm",
							"s": {
								"a": 1,
								"k": [
									{
										"i": { "x": [ 0.667 ], "y": [ 1 ] },
										"o": { "x": [ 0.333 ], "y": [ 0 ] },
										"t": 204,
										"s": [ 0 ]
									},
									{ "t": 208, "s": [ 100 ] }
								],
								"ix": 1
							},
							"e": { "a": 0, "k": 0, "ix": 2 },
							"o": { "a": 0, "k": 0, "ix": 3 },
							"m": 2,
							"ix": 3,
							"nm": "Trim Paths 1",
							"mn": "ADBE Vector Filter - Trim",
							"hd": false
						},
						{
							"ty": "tr",
							"p": { "a": 0, "k": [ 0, 0 ], "ix": 2 },
							"a": { "a": 0, "k": [ 0, 0 ], "ix": 1 },
							"s": { "a": 0, "k": [ 100, 100 ], "ix": 3 },
							"r": { "a": 0, "k": 0, "ix": 6 },
							"o": {
								"a": 1,
								"k": [
									{
										"i": { "x": [ 0.667 ], "y": [ 1 ] },
										"o": { "x": [ 0.333 ], "y": [ 0 ] },
										"t": 235,
										"s": [ 50 ]
									},
									{ "t": 237, "s": [ 100 ] }
								],
								"ix": 7
							},
							"sk": { "a": 0, "k": 0, "ix": 4 },
							"sa": { "a": 0, "k": 0, "ix": 5 },
							"nm": "Transform"
						}
					],
					"nm": "Group 1",
					"np": 3,
					"cix": 2,
					"bm": 0,
					"ix": 5,
					"mn": "ADBE Vector Group",
					"hd": false
				}
			],
			"ip": 167,
			"op": 451,
			"st": 167,
			"bm": 0
		},
		{
			"ddd": 0,
			"ind": 30,
			"ty": 4,
			"nm": "dash Outlines 6",
			"parent": 28,
			"sr": 1,
			"ks": {
				"o": {
					"a": 1,
					"k": [
						{
							"i": { "x": [ 0.833 ], "y": [ 0.833 ] },
							"o": { "x": [ 0.167 ], "y": [ 0.167 ] },
							"t": 440,
							"s": [ 100 ]
						},
						{ "t": 446, "s": [ 0 ] }
					],
					"ix": 11
				},
				"r": { "a": 0, "k": 180, "ix": 10 },
				"p": { "a": 0, "k": [ 85.848, 139.097, 0 ], "ix": 2 },
				"a": { "a": 0, "k": [ 414.116, 141.807, 0 ], "ix": 1 },
				"s": { "a": 0, "k": [ 107, 107, 100 ], "ix": 6 }
			},
			"ao": 0,
			"shapes": [
				{
					"ty": "gr",
					"it": [
						{
							"ind": 0,
							"ty": "sh",
							"ix": 1,
							"ks": {
								"a": 0,
								"k": {
									"i": [ [ 0, 0 ], [ 0, 0 ] ],
									"o": [ [ 0, 0 ], [ 0, 0 ] ],
									"v": [ [ 826.731, 71.654 ], [ 1.5, 71.654 ] ],
									"c": false
								},
								"ix": 2
							},
							"nm": "Path 1",
							"mn": "ADBE Vector Shape - Group",
							"hd": false
						},
						{
							"ty": "st",
							"c": { "a": 0, "k": [ 1, 1, 1, 1 ], "ix": 3 },
							"o": { "a": 0, "k": 100, "ix": 4 },
							"w": { "a": 0, "k": 3, "ix": 5 },
							"lc": 2,
							"lj": 1,
							"ml": 10,
							"bm": 0,
							"d": [
								{ "n": "d", "nm": "dash", "v": { "a": 0, "k": 15, "ix": 1 } },
								{ "n": "g", "nm": "gap", "v": { "a": 0, "k": 20, "ix": 2 } },
								{ "n": "o", "nm": "offset", "v": { "a": 0, "k": 0, "ix": 7 } }
							],
							"nm": "Stroke 1",
							"mn": "ADBE Vector Graphic - Stroke",
							"hd": false
						},
						{
							"ty": "tm",
							"s": {
								"a": 1,
								"k": [
									{
										"i": { "x": [ 0.667 ], "y": [ 1 ] },
										"o": { "x": [ 0.333 ], "y": [ 0 ] },
										"t": 311,
										"s": [ 0 ]
									},
									{ "t": 315, "s": [ 100 ] }
								],
								"ix": 1
							},
							"e": { "a": 0, "k": 0, "ix": 2 },
							"o": { "a": 0, "k": 0, "ix": 3 },
							"m": 2,
							"ix": 3,
							"nm": "Trim Paths 2",
							"mn": "ADBE Vector Filter - Trim",
							"hd": false
						},
						{
							"ty": "tr",
							"p": { "a": 0, "k": [ 0, 0 ], "ix": 2 },
							"a": { "a": 0, "k": [ 0, 0 ], "ix": 1 },
							"s": { "a": 0, "k": [ 100, 100 ], "ix": 3 },
							"r": { "a": 0, "k": 0, "ix": 6 },
							"o": { "a": 0, "k": 50, "ix": 7 },
							"sk": { "a": 0, "k": 0, "ix": 4 },
							"sa": { "a": 0, "k": 0, "ix": 5 },
							"nm": "Transform"
						}
					],
					"nm": "Group 2",
					"np": 3,
					"cix": 2,
					"bm": 0,
					"ix": 4,
					"mn": "ADBE Vector Group",
					"hd": false
				},
				{
					"ty": "gr",
					"it": [
						{
							"ind": 0,
							"ty": "sh",
							"ix": 1,
							"ks": {
								"a": 0,
								"k": {
									"i": [ [ 0, 0 ], [ 0, 0 ] ],
									"o": [ [ 0, 0 ], [ 0, 0 ] ],
									"v": [ [ 826.731, 1.5 ], [ 1.5, 1.5 ] ],
									"c": false
								},
								"ix": 2
							},
							"nm": "Path 1",
							"mn": "ADBE Vector Shape - Group",
							"hd": false
						},
						{
							"ty": "st",
							"c": {
								"a": 1,
								"k": [
									{
										"i": { "x": [ 0.667 ], "y": [ 1 ] },
										"o": { "x": [ 0.333 ], "y": [ 0 ] },
										"t": 336,
										"s": [ 1, 1, 1, 1 ]
									},
									{ "t": 338, "s": [ 0.921568627451, 0.419607843137, 0.41568627451, 1 ] }
								],
								"ix": 3
							},
							"o": {
								"a": 1,
								"k": [
									{
										"i": { "x": [ 0.833 ], "y": [ 0.833 ] },
										"o": { "x": [ 0.167 ], "y": [ 0.167 ] },
										"t": 336,
										"s": [ 50 ]
									},
									{ "t": 338, "s": [ 100 ] }
								],
								"ix": 4
							},
							"w": { "a": 0, "k": 3, "ix": 5 },
							"lc": 2,
							"lj": 1,
							"ml": 10,
							"bm": 0,
							"d": [
								{ "n": "d", "nm": "dash", "v": { "a": 0, "k": 15, "ix": 1 } },
								{ "n": "g", "nm": "gap", "v": { "a": 0, "k": 20, "ix": 2 } },
								{ "n": "o", "nm": "offset", "v": { "a": 0, "k": 0, "ix": 7 } }
							],
							"nm": "Stroke 1",
							"mn": "ADBE Vector Graphic - Stroke",
							"hd": false
						},
						{
							"ty": "tm",
							"s": {
								"a": 1,
								"k": [
									{
										"i": { "x": [ 0.667 ], "y": [ 1 ] },
										"o": { "x": [ 0.333 ], "y": [ 0 ] },
										"t": 313,
										"s": [ 0 ]
									},
									{ "t": 317, "s": [ 100 ] }
								],
								"ix": 1
							},
							"e": { "a": 0, "k": 0, "ix": 2 },
							"o": { "a": 0, "k": 0, "ix": 3 },
							"m": 2,
							"ix": 3,
							"nm": "Trim Paths 1",
							"mn": "ADBE Vector Filter - Trim",
							"hd": false
						},
						{
							"ty": "tr",
							"p": { "a": 0, "k": [ 0, 0 ], "ix": 2 },
							"a": { "a": 0, "k": [ 0, 0 ], "ix": 1 },
							"s": { "a": 0, "k": [ 100, 100 ], "ix": 3 },
							"r": { "a": 0, "k": 0, "ix": 6 },
							"o": {
								"a": 1,
								"k": [
									{
										"i": { "x": [ 0.667 ], "y": [ 1 ] },
										"o": { "x": [ 0.333 ], "y": [ 0 ] },
										"t": 235,
										"s": [ 50 ]
									},
									{ "t": 237, "s": [ 100 ] }
								],
								"ix": 7
							},
							"sk": { "a": 0, "k": 0, "ix": 4 },
							"sa": { "a": 0, "k": 0, "ix": 5 },
							"nm": "Transform"
						}
					],
					"nm": "Group 1",
					"np": 3,
					"cix": 2,
					"bm": 0,
					"ix": 5,
					"mn": "ADBE Vector Group",
					"hd": false
				}
			],
			"ip": 167,
			"op": 451,
			"st": 167,
			"bm": 0
		},
		{
			"ddd": 0,
			"ind": 31,
			"ty": 4,
			"nm": "MATTE 2",
			"sr": 1,
			"ks": {
				"o": { "a": 0, "k": 100, "ix": 11 },
				"r": { "a": 0, "k": 0, "ix": 10 },
				"p": { "a": 0, "k": [ 560, 570, 0 ], "ix": 2 },
				"a": { "a": 0, "k": [ -20, -32, 0 ], "ix": 1 },
				"s": { "a": 0, "k": [ 107.627, 107.627, 100 ], "ix": 6 }
			},
			"ao": 0,
			"shapes": [
				{
					"ty": "gr",
					"it": [
						{
							"ty": "gr",
							"it": [
								{
									"ty": "rc",
									"d": 1,
									"s": { "a": 0, "k": [ 1069.346, 1069.346 ], "ix": 2 },
									"p": { "a": 0, "k": [ 0, 0 ], "ix": 3 },
									"r": { "a": 0, "k": 0, "ix": 4 },
									"nm": "Rectangle Path 1",
									"mn": "ADBE Vector Shape - Rect",
									"hd": false
								},
								{
									"ty": "st",
									"c": { "a": 0, "k": [ 1, 0.270996003992, 0.128997997209, 1 ], "ix": 3 },
									"o": { "a": 0, "k": 100, "ix": 4 },
									"w": { "a": 0, "k": 0, "ix": 5 },
									"lc": 1,
									"lj": 1,
									"ml": 4,
									"bm": 0,
									"nm": "Stroke 1",
									"mn": "ADBE Vector Graphic - Stroke",
									"hd": false
								},
								{
									"ty": "fl",
									"c": {
										"a": 0,
										"k": [ 0.149019607843, 0.141176470588, 0.219607843137, 1 ],
										"ix": 4
									},
									"o": { "a": 0, "k": 100, "ix": 5 },
									"r": 1,
									"bm": 0,
									"nm": "Fill 1",
									"mn": "ADBE Vector Graphic - Fill",
									"hd": false
								},
								{
									"ty": "tr",
									"p": { "a": 0, "k": [ -27.433, -39.433 ], "ix": 2 },
									"a": { "a": 0, "k": [ 0, 0 ], "ix": 1 },
									"s": { "a": 0, "k": [ 100, 100 ], "ix": 3 },
									"r": { "a": 0, "k": 0, "ix": 6 },
									"o": { "a": 0, "k": 100, "ix": 7 },
									"sk": { "a": 0, "k": 0, "ix": 4 },
									"sa": { "a": 0, "k": 0, "ix": 5 },
									"nm": "Transform"
								}
							],
							"nm": "Rectangle 1",
							"np": 3,
							"cix": 2,
							"bm": 0,
							"ix": 1,
							"mn": "ADBE Vector Group",
							"hd": false
						},
						{ "ty": "mm", "mm": 5, "nm": "Merge Paths 1", "mn": "ADBE Vector Filter - Merge", "hd": false },
						{
							"ty": "fl",
							"c": { "a": 0, "k": [ 0.149019607843, 0.141176470588, 0.219607843137, 1 ], "ix": 4 },
							"o": { "a": 0, "k": 100, "ix": 5 },
							"r": 1,
							"bm": 0,
							"nm": "Fill 1",
							"mn": "ADBE Vector Graphic - Fill",
							"hd": false
						},
						{
							"ty": "tr",
							"p": { "a": 0, "k": [ -27.433, -39.433 ], "ix": 2 },
							"a": { "a": 0, "k": [ -27.433, -39.433 ], "ix": 1 },
							"s": { "a": 0, "k": [ 100, 100 ], "ix": 3 },
							"r": { "a": 0, "k": 0, "ix": 6 },
							"o": { "a": 0, "k": 100, "ix": 7 },
							"sk": { "a": 0, "k": 0, "ix": 4 },
							"sa": { "a": 0, "k": 0, "ix": 5 },
							"nm": "Transform"
						}
					],
					"nm": "Group 2",
					"np": 3,
					"cix": 2,
					"bm": 0,
					"ix": 1,
					"mn": "ADBE Vector Group",
					"hd": false
				}
			],
			"ip": 0,
			"op": 653,
			"st": 0,
			"bm": 0
		}
	],
	"markers": []
}
